//FORSYSXZ JOB  CLASS=A,MSGCLASS=X,REGION=0M
//* ------------------------------------------------------------------
//*  ZZAC : SUPPRESSION JOURNAUX CICS DANS LE SYSTEM LOGGER
//* ------------------------------------------------------------------
//LOGSTRM  EXEC  PGM=IXCMIAPU
//SYSPRINT DD SYSOUT=*
//SYSOUT   DD SYSOUT=*
//SYSIN    DD *
       DATA TYPE(LOGR) REPORT(YES)
DELETE LOGSTREAM NAME(CICSZZAC.CICSZZAC.DFHLOG)
DELETE LOGSTREAM NAME(CICSZZAC.CICSZZAC.DFHSHUNT)
//*
