APPLZZAC VBUILD TYPE=APPL
*
CICSZZAC APPL  EAS=50,                                                 *
               VPACING=7,                                              *
               PARSESS=YES,                                            *
               SONSCIP=YES,                                            *
               AUTH=(ACQ,PASS,VPACE)
