//CICSZZAC JOB (CICS,CICSZZAC),'CICSZZAC',MSGLEVEL=(1,1),
//         MSGCLASS=A,TIME=NOLIMIT
//JESOUT   OUTPUT  OUTDISP=(HOLD,HOLD),DEST=CICSZZAC,JESDS=ALL
//DEFAULT  OUTPUT  OUTDISP=(HOLD,HOLD),DEST=CICSZZAC,DEFAULT=YES
//*
//CICSZZAC PROC START='AUTO',
// INDEX1='CICSZZOS',
// INDEX2='ZZAC',
// ACTIVATE=SDFHLIC,                                     @D77578A
// REG='1150M',                                              @L6C
// MEMLIM='10G',                                         @D51430C
// SIP='AC',
// DUMPTR='YES',
// RUNCICS='YES',
// OUTC='*'
//*
//*       REG - MVS REGION STORAGE REQUIRED
//*     START - TYPE OF CICS START-UP REQUIRED
//*    DUMPTR - DUMP/TRACE ANALYSIS REQUIRED, YES OR NO
//*   RUNCICS - CICS STARTUP REQUIRED, YES OR NO
//*      OUTC - PRINT OUTPUT CLASS
//*
//* SET THE RETURN CODE TO CONTROL IF CICS SHOULD BE
//* STARTED OR NOT
//CICSCNTL EXEC PGM=IDCAMS,REGION=1M
//SYSPRINT DD SYSOUT=*
//SYSIN    DD DISP=SHR,DSN=&INDEX1..&INDEX2..SYSIN(DFHRC&RUNCICS)
//*
//* SET THE RETURN CODE TO CONTROL THE DUMP AND TRACE
//* ANALYSIS STEPS
//DTCNTL   EXEC PGM=IDCAMS,REGION=1M
//SYSPRINT DD SYSOUT=*
//SYSIN    DD DISP=SHR,DSN=&INDEX1..&INDEX2..SYSIN(DFHRC&DUMPTR)
//*
//***********************************************************
//*******************  EXECUTE CICS  ************************
//***********************************************************
//CICS    EXEC PGM=DFHSIP,REGION=&REG,TIME=1440,
// MEMLIMIT=&MEMLIM,                                         @L6A
// COND=(1,NE,CICSCNTL),
// PARM='START=&START,SYSIN'
//*
//*            THE CAVM DATASETS - XRF
//*
//*
//SYSIN    DD DISP=SHR,DSN=&INDEX1..&INDEX2..SYSIN(DFHSIP&SIP)
//*DFHCMACD DD DSN=&DSINDEX.DFHCMACD,DISP=SHR
//***********************************************************
//*        THE CICS STEPLIB CONCATENATION
//*        IF LANGUAGE ENVIRONMENT IS REQUIRED, THE SCEERUN2
//*        AND SCEERUN DATASETS IS NEEDED IN STEPLIB OR LNKLST
//***********************************************************
//STEPLIB  DD DSN=&INDEX1..&INDEX2..TABLOAD,DISP=SHR
//         DD DSN=CICS.CICS.SDFHAUTH,DISP=SHR
//         DD DSN=CICS.CPSM.SEYUAUTH,DISP=SHR
//         DD DSN=CICS.CICS.&ACTIVATE,DISP=SHR          @R77578A
//         DD DSN=CEE.SCEERUN2,DISP=SHR
//         DD DSN=CEE.SCEERUN,DISP=SHR
//***********************************************************
//*        THE CICS LIBRARY (DFHRPL) CONCATENATION
//*        IF LANGUAGE ENVIRONMENT IS REQUIRED, THE SCEECICS,
//*        SCEERUN2 AND SCEERUN DATASETS ARE NEEDED IN DFHRPL.
//*        REFER TO THE SYSTEMS DEFINITION GUIDE FOR
//*        INFORMATION ON HOW TO RUN WITH THE NATIVE
//*        RUNTIME ENVIRONMENTS SUCH AS VS COBOL II.
//***********************************************************
//DFHRPL   DD DSN=&INDEX1..&INDEX2..TABLOAD,DISP=SHR
//         DD DSN=CICS.CICS.SDFHLOAD,DISP=SHR <--- LOAD CICS IBM
//         DD DSN=CEE.SCEECICS,DISP=SHR
//         DD DSN=CEE.SCEERUN2,DISP=SHR
//         DD DSN=CEE.SCEERUN,DISP=SHR
//         DD DSN=DB2Z.RUNLIB.LOAD,DISP=SHR <--- DB2Z IVP
//*        PLT TABLES
//DFHTABL  DD DISP=SHR,DSN=&INDEX1..&INDEX2..TABSRCE(DFHPLTPI)
//         DD DISP=SHR,DSN=&INDEX1..&INDEX2..TABSRCE(DFHPLTSD)
//*        THE AUXILIARY TEMPORARY STORAGE DATASET
//DFHTEMP  DD DSN=&INDEX1..&INDEX2..DFHTEMP,DISP=SHR
//*        THE INTRAPARTITION DATASET
//DFHINTRA DD DSN=&INDEX1..&INDEX2..DFHINTRA,DISP=SHR
//*        THE AUXILIARY TRACE DATASETS
//DFHAUXT  DD DSN=&INDEX1..&INDEX2..DFHAUXT,DISP=SHR,DCB=BUFNO=5
//DFHBUXT  DD DSN=&INDEX1..&INDEX2..DFHBUXT,DISP=SHR,DCB=BUFNO=5
//*        THE CICS LOCAL CATALOG DATASET
//DFHLCD   DD DSN=&INDEX1..&INDEX2..DFHLCD,DISP=SHR
//*        THE CICS GLOBAL CATALOG DATASET
//DFHGCD   DD DSN=&INDEX1..&INDEX2..DFHGCD,DISP=SHR
//*            AMP=('BUFND=5,BUFNI=20,BUFSP=122880')
//*        THE CICS LOCAL REQUEST QUEUE DATASET
//DFHLRQ   DD DSN=&INDEX1..&INDEX2..DFHLRQ,DISP=SHR
//* EXTRAPARTITION DATASETS
//DFHCXRF  DD SYSOUT=&OUTC
//LOGUSR   DD SYSOUT=&OUTC,DCB=(DSORG=PS,RECFM=V,BLKSIZE=136)
//MSGUSR   DD SYSOUT=&OUTC,DCB=(DSORG=PS,RECFM=V,BLKSIZE=136)
//CEEMSG   DD SYSOUT=&OUTC
//CEEOUT   DD SYSOUT=&OUTC
//*        THE DUMP DATASETS
//DFHDMPA  DD DSN=&INDEX1..&INDEX2..DFHDMPA,DISP=SHR
//DFHDMPB  DD DSN=&INDEX1..&INDEX2..DFHDMPB,DISP=SHR
//SYSABEND DD SYSOUT=&OUTC
//SYSPRINT DD SYSOUT=&OUTC
//PRINTER  DD SYSOUT=&OUTC,DCB=BLKSIZE=121
//*
//         PEND
//*
//CICSZZAC EXEC CICSZZAC
