//FORSYSXZ JOB  CLASS=A,MSGCLASS=X,REGION=0M,NOTIFY=&SYSUID
//* ------------------------------------------------------------------
//*  ZZAC : ALLOCATION DES FICHIERS HSM LIST
//* ------------------------------------------------------------------
//IEFBR14  EXEC PGM=IEFBR14
//BCDSLIST DD DISP=(,CATLG,DELETE),DSN=ZZOSHSM.BCDS.LIST,
//         SPACE=(CYL,(5,1)),LRECL=121,RECFM=FBA,DSORG=PS
//MCDSLIST DD DISP=(,CATLG,DELETE),DSN=ZZOSHSM.MCDS.LIST,
//         SPACE=(CYL,(1,1)),LRECL=121,RECFM=FBA,DSORG=PS
//OCDSLIST DD DISP=(,CATLG,DELETE),DSN=ZZOSHSM.OCDS.LIST,
//         SPACE=(TRK,(1,1)),LRECL=121,RECFM=FBA,DSORG=PS
//*
