//FORSYSXZ JOB  CLASS=A,MSGCLASS=X,REGION=0M,NOTIFY=&SYSUID
//* ------------------------------------------------------------------
//*  ZZAC :  LISTE HSM
//* ------------------------------------------------------------------
//REPRVIDE EXEC PGM=IDCAMS
//*------------------------------------------------------------
//* VIDAGE ZZOSHSM LIST
//*------------------------------------------------------------
//SYSOUT   DD SYSOUT=*
//SYSPRINT DD SYSOUT=*
//SYSIN    DD *
  REPRO IDS(NULLFILE) ODS(ZZOSHSM.BCDS.LIST)
  REPRO IDS(NULLFILE) ODS(ZZOSHSM.MCDS.LIST)
  REPRO IDS(NULLFILE) ODS(ZZOSHSM.OCDS.LIST)
//*
//HSMLIST  EXEC PGM=IKJEFT01,DYNAMNBR=20
//SYSTSPRT DD SYSOUT=*
//SYSPRINT DD SYSOUT=*
//SYSUDUMP DD SYSOUT=*
//SYSTSIN  DD *
  HSEND WAIT LIST DATASETNAME BCDS  ODS(ZZOSHSM.BCDS.LIST)
  HSEND WAIT LIST DATASETNAME MCDS  ODS(ZZOSHSM.MCDS.LIST)
  HSEND WAIT LIST TAPETABLEOFCONTENTS SELECT(CONNECTED)           -
             ODS(ZZOSHSM.OCDS.LIST)
//*
