//FORSYSXZ JOB  CLASS=A,MSGCLASS=X,REGION=0M,NOTIFY=&SYSUID
//* ------------------------------------------------------------------
//*  ZZAC : CREATION DU PLAN A LONG TERME LA PREMIERE FOIS
//*  ZZAC : MODIFIER YYMMDDYYMMDD DANS LA SYSIN
//* ------------------------------------------------------------------
//DELETE   EXEC PGM=IEFBR14
//OLDLIST  DD DSN=ZZOSSMS.TWCZ.LTCRE.LIST,
//         UNIT=3390,SPACE=(TRK,0),DISP=(MOD,DELETE)
//ALLOC    EXEC PGM=IEFBR14
//NEWLIST  DD DSN=ZZOSSMS.TWCZ.LTCRE.LIST,
//         UNIT=3390,DISP=(,CATLG),SPACE=(CYL,(2,5),RLSE),
//         DCB=(RECFM=FBA,LRECL=129,BLKSIZE=12900)
//*********************************************************************
//*
//*    Licensed Materials - Property of IBM
//*    5698-T08
//*    Copyright IBM Corp. 1990, 2015 All Rights Reserved.
//*    US Government Users Restricted Rights - Use, duplication
//*    or disclosure restricted by GSA ADP Schedule Contract
//*    with IBM Corp.
//* Change History
//*   $DKQ=PM79187 121214 KB: Missing section in LTP report
//*   $DMQ=PM98377 131003 KB: Udpate BLKLGTH in LTOCIN and LTOCOUT
//*
//* LONG TERM PLANNING - CREATE THE LONG TERM PLAN
//*
//* $MOD(EQQLTREZ) COMP(LTP) PROD(TWSZ): LTP batch
//*
//* Flag Reason   Rlse   Date   Origin Flag Description
//* ---- -------- ------ ------ ------ -----------------------------
//* $71= DCR0362  910    121130  MATC: matching criteria
//* $91= DCR0470  930    141125  VDUR: Variable duration
//*
//*********************************************************************
//LTCREATE EXEC PGM=EQQBATCH,PARM='EQQLTCRE',REGION=4096K
//EQQMLIB  DD DISP=SHR,DSN=TWS.SEQQMSG0
//EQQPARM  DD DISP=SHR,DSN=ZZOSSMS.TWCZ.PARM(TWCZB)
//LTREPORT DD DSN=ZZOSSMS.TWCZ.LTCRE.LIST,DISP=SHR,
//         DCB=(RECFM=FBA,LRECL=121,BLKSIZE=6050)
//EQQMLOG  DD SYSOUT=*
//SYSOUT   DD SYSOUT=*
//SYSPRINT DD SYSOUT=*
//SYSMDUMP DD DISP=MOD,DSN=ZZOSSMS.TWCZ.SYSDUMPB
//EQQDUMP  DD SYSOUT=*
//EQQDMSG  DD SYSOUT=*
//LTPRED3  DD DCB=(RECFM=FB,LRECL=100,BLKSIZE=6300),
//         SPACE=(6300,(300,300)),UNIT=3390
//LTPRIN   DD DCB=(RECFM=FB,LRECL=100,BLKSIZE=6300),
//         SPACE=(6300,(300,300)),UNIT=3390
//LTPROUT  DD DCB=(RECFM=FB,LRECL=100,BLKSIZE=6300),
//         SPACE=(6300,(300,300)),UNIT=3390
//LTOCIN   DD DCB=(RECFM=FB,LRECL=1152,BLKSIZE=6912),
//         SPACE=(6912,(2400,2400)),UNIT=3390
//LTOCOUT  DD DCB=(RECFM=FB,LRECL=1152,BLKSIZE=6912),
//         SPACE=(6912,(2400,2400)),UNIT=3390
//LTPRWK01 DD SPACE=(CYL,(1,5)),UNIT=3390
//LTPRWK02 DD SPACE=(CYL,(1,5)),UNIT=3390
//LTPRWK03 DD SPACE=(CYL,(1,5)),UNIT=3390
//LTOCWK01 DD SPACE=(CYL,(1,5)),UNIT=3390
//LTOCWK02 DD SPACE=(CYL,(1,5)),UNIT=3390
//LTOCWK03 DD SPACE=(CYL,(1,5)),UNIT=3390
//EQQADDS  DD DSN=ZZOSSMS.TWCZ.AD,DISP=SHR
//EQQWSDS  DD DSN=ZZOSSMS.TWCZ.WS,DISP=SHR
//EQQLTDS  DD DSN=ZZOSSMS.TWCZ.LT,DISP=SHR
//EQQLTBKP DD DSN=ZZOSSMS.TWCZ.LB,DISP=SHR
//EQQLDDS  DD DSN=ZZOSSMS.TWCZ.LD,DISP=SHR,
//            AMP=('BUFNI=10,BUFND=10')
//SYSIN    DD *
YYMMDDYYMMDD
/*
//* = STARTDATE (YYMMDD)
//*   ENDDATE (YYMMDD)
//*
