 O                                                                     X00010000
ACTION SELECTION                                                       X00020000
ORGANIZATION                                                           X00030000
SELECT AN ACTION FROM FOLLOWING LIST                                   X00040000
SELECT AN ACTION FROM FOLLOWING LIST                                   X00050000
PFK: 02=RESEND 03=END                                                  X00060000
                                                                        00070000
 P                                                                     X00080000
ACTION SELECTION                                                       X00090000
PROJECTS                                                               X00100000
SELECT AN ACTION FROM FOLLOWING LIST                                   X00110000
SELECT AN ACTION FROM FOLLOWING LIST                                   X00120000
PFK: 02=RESEND 03=END                                                  X00130000
                                                                        00140000
 O A                                                                   X00150000
OBJECT SELECTION                                                       X00160000
ADD (INSERT)                                                           X00170000
SELECT AN OBJECT FROM FOLLOWING LIST                                   X00180000
SELECT AN OBJECT FROM FOLLOWING LIST                                   X00190000
PFK: 02=RESEND 03=END                                                  X00200000
                                                                        00210000
 O D                                                                   X00220000
OBJECT SELECTION                                                       X00230000
DISPLAY (SHOW)                                                         X00240000
SELECT AN OBJECT FROM FOLLOWING LIST                                   X00250000
SELECT AN OBJECT FROM FOLLOWING LIST                                   X00260000
PFK: 02=RESEND 03=END                                                  X00270000
                                                                        00280000
 O E                                                                   X00290000
OBJECT SELECTION                                                       X00300000
ERASE (REMOVE)                                                         X00310000
SELECT AN OBJECT FROM FOLLOWING LIST                                   X00320000
SELECT AN OBJECT FROM FOLLOWING LIST                                   X00330000
PFK: 02=RESEND 03=END                                                  X00340000
                                                                        00350000
 O U                                                                   X00360000
OBJECT SELECTION                                                       X00370000
UPDATE (CHANGE)                                                        X00380000
SELECT AN OBJECT FROM FOLLOWING LIST                                   X00390000
SELECT AN OBJECT FROM FOLLOWING LIST                                   X00400000
PFK: 02=RESEND 03=END                                                  X00410000
                                                                        00420000
 O D DS                                                                X00430000
SEARCH CRITERIA SPECIFICATION                                          X00440000
DEPARTMENT STRUCTURE                                                   X00450000
SPECIFY A SEARCH CRITERION FROM THE LIST AND DATA                      X00460000
SPECIFY A SEARCH CRITERION FROM THE LIST AND DATA                      X00470000
PFK: 02=RESEND 03=END                                                  X00480000
                                                                        00490000
 O A DE                                                                X00500000
SEARCH CRITERIA SPECIFICATION                                          X00510000
DEPARTMENT                                                             X00520000
SPECIFY A SEARCH CRITERION FROM THE LIST AND DATA                      X00530000
SPECIFY A SEARCH CRITERION FROM THE LIST AND DATA                      X00540000
PFK: 02=RESEND 03=END                                                  X00550000
                                                                        00560000
 O D DE                                                                X00570000
SEARCH CRITERIA SPECIFICATION                                          X00580000
DEPARTMENT                                                             X00590000
SPECIFY A SEARCH CRITERION FROM THE LIST AND DATA                      X00600000
SPECIFY A SEARCH CRITERION FROM THE LIST AND DATA                      X00610000
PFK: 02=RESEND 03=END                                                  X00620000
                                                                        00630000
 O E DE                                                                X00640000
SEARCH CRITERIA SPECIFICATION                                          X00650000
DEPARTMENT                                                             X00660000
SPECIFY A SEARCH CRITERION FROM THE LIST AND DATA                      X00670000
SPECIFY A SEARCH CRITERION FROM THE LIST AND DATA                      X00680000
PFK: 02=RESEND 03=END                                                  X00690000
                                                                        00700000
 O U DE                                                                X00710000
SEARCH CRITERIA SPECIFICATION                                          X00720000
DEPARTMENT                                                             X00730000
SPECIFY A SEARCH CRITERION FROM THE LIST AND DATA                      X00740000
SPECIFY A SEARCH CRITERION FROM THE LIST AND DATA                      X00750000
PFK: 02=RESEND 03=END                                                  X00760000
                                                                        00770000
 O A EM                                                                X00780000
SEARCH CRITERIA SPECIFICATION                                          X00790000
EMPLOYEE                                                               X00800000
SPECIFY A SEARCH CRITERION FROM THE LIST AND DATA                      X00810000
SPECIFY A SEARCH CRITERION FROM THE LIST AND DATA                      X00820000
PFK: 02=RESEND 03=END                                                  X00830000
                                                                        00840000
 O D EM                                                                X00850000
SEARCH CRITERIA SPECIFICATION                                          X00860000
EMPLOYEE                                                               X00870000
SPECIFY A SEARCH CRITERION FROM THE LIST AND DATA                      X00880000
SPECIFY A SEARCH CRITERION FROM THE LIST AND DATA                      X00890000
PFK: 02=RESEND 03=END                                                  X00900000
                                                                        00910000
 O E EM                                                                X00920000
SEARCH CRITERIA SPECIFICATION                                          X00930000
EMPLOYEE                                                               X00940000
SPECIFY A SEARCH CRITERION FROM THE LIST AND DATA                      X00950000
SPECIFY A SEARCH CRITERION FROM THE LIST AND DATA                      X00960000
PFK: 02=RESEND 03=END                                                  X00970000
                                                                        00980000
 O U EM                                                                X00990000
SEARCH CRITERIA SPECIFICATION                                          X01000000
EMPLOYEE                                                               X01010000
SPECIFY A SEARCH CRITERION FROM THE LIST AND DATA                      X01020000
SPECIFY A SEARCH CRITERION FROM THE LIST AND DATA                      X01030000
PFK: 02=RESEND 03=END                                                  X01040000
                                                                        01050000
 O D DS DI S                                                           X01060000
DEPARTMENT ADMINISTRATIVE STRUCTURE SELECTION                          X01070000
DEPARTMENT ID                                                          X01080000
SELECT A DEPARTMENT FROM FOLLOWING LIST BY SPECIFYING THE LINE NUMBER  X01090000
SELECT A DEPARTMENT FROM FOLLOWING LIST BY SPECIFYING THE LINE NUMBER  X01100000
PFK: 02=RESEND 03=END 08=NEXT                                          X01110000
03                                                                      01120000
 O D DS DN S                                                           X01130000
DEPARTMENT ADMINISTRATIVE STRUCTURE SELECTION                          X01140000
DEPARTMENT NAME                                                        X01150000
SELECT A DEPARTMENT FROM FOLLOWING LIST BY SPECIFYING THE LINE NUMBER  X01160000
SELECT A DEPARTMENT FROM FOLLOWING LIST BY SPECIFYING THE LINE NUMBER  X01170000
PFK: 02=RESEND 03=END 08=NEXT                                          X01180000
03                                                                      01190000
 O D DS EI S                                                           X01200000
DEPARTMENT ADMINISTRATIVE STRUCTURE SELECTION                          X01210000
EMPLOYEE ID                                                            X01220000
SELECT A DEPARTMENT FROM FOLLOWING LIST BY SPECIFYING THE LINE NUMBER  X01230000
SELECT A DEPARTMENT FROM FOLLOWING LIST BY SPECIFYING THE LINE NUMBER  X01240000
PFK: 02=RESEND 03=END 08=NEXT                                          X01250000
03                                                                      01260000
 O D DS EN S                                                           X01270000
DEPARTMENT ADMINISTRATIVE STRUCTURE SELECTION                          X01280000
EMPLOYEE NAME                                                          X01290000
SELECT A DEPARTMENT FROM FOLLOWING LIST BY SPECIFYING THE LINE NUMBER  X01300000
SELECT A DEPARTMENT FROM FOLLOWING LIST BY SPECIFYING THE LINE NUMBER  X01310000
PFK: 02=RESEND 03=END 08=NEXT                                          X01320000
03                                                                      01330000
 O D DS MI S                                                           X01340000
DEPARTMENT ADMINISTRATIVE STRUCTURE SELECTION                          X01350000
MANAGER ID                                                             X01360000
SELECT A DEPARTMENT FROM FOLLOWING LIST BY SPECIFYING THE LINE NUMBER  X01370000
SELECT A DEPARTMENT FROM FOLLOWING LIST BY SPECIFYING THE LINE NUMBER  X01380000
PFK: 02=RESEND 03=END 08=NEXT                                          X01390000
03                                                                      01400000
 O D DS MN S                                                           X01410000
DEPARTMENT ADMINISTRATIVE STRUCTURE SELECTION                          X01420000
MANAGER NAME                                                           X01430000
SELECT A DEPARTMENT FROM FOLLOWING LIST BY SPECIFYING THE LINE NUMBER  X01440000
SELECT A DEPARTMENT FROM FOLLOWING LIST BY SPECIFYING THE LINE NUMBER  X01450000
PFK: 02=RESEND 03=END 08=NEXT                                          X01460000
03                                                                      01470000
 O D DS DI D                                                           X01480000
DEPARTMENT ADMINISTRATIVE STRUCTURE                                    X01490000
                                                                       X01500000
                                                                       X01510000
                                                                       X01520000
PFK: 02=RESEND 03=END 08=NEXT 10=LEFT                                  X01530000
04                                                                      01540000
 O D DE DI S                                                           X01550000
DISPLAY A DEPARTMENT (AND ITS MANAGER)                                 X01560000
DEPARTMENT ID                                                          X01570000
SELECT A DEPARTMENT FROM FOLLOWING LIST BY SPECIFYING THE LINE NUMBER  X01580000
SELECT A DEPARTMENT FROM FOLLOWING LIST BY SPECIFYING THE LINE NUMBER  X01590000
PFK: 02=RESEND 03=END 08=NEXT                                          X01600000
03                                                                      01610000
 O D DE DN S                                                           X01620000
DISPLAY A DEPARTMENT (AND ITS MANAGER)                                 X01630000
DEPARTMENT NAME                                                        X01640000
SELECT A DEPARTMENT FROM FOLLOWING LIST BY SPECIFYING THE LINE NUMBER  X01650000
SELECT A DEPARTMENT FROM FOLLOWING LIST BY SPECIFYING THE LINE NUMBER  X01660000
PFK: 02=RESEND 03=END 08=NEXT                                          X01670000
03                                                                      01680000
 O D DE MI S                                                           X01690000
DISPLAY A DEPARTMENT (AND ITS MANAGER)                                 X01700000
MANAGER ID                                                             X01710000
SELECT A DEPARTMENT FROM FOLLOWING LIST BY SPECIFYING THE LINE NUMBER  X01720000
SELECT A DEPARTMENT FROM FOLLOWING LIST BY SPECIFYING THE LINE NUMBER  X01730000
PFK: 02=RESEND 03=END 08=NEXT                                          X01740000
03                                                                      01750000
 O D DE MN S                                                           X01760000
DISPLAY A DEPARTMENT (AND ITS MANAGER)                                 X01770000
MANAGER NAME                                                           X01780000
SELECT A DEPARTMENT FROM FOLLOWING LIST BY SPECIFYING THE LINE NUMBER  X01790000
SELECT A DEPARTMENT FROM FOLLOWING LIST BY SPECIFYING THE LINE NUMBER  X01800000
PFK: 02=RESEND 03=END 08=NEXT                                          X01810000
03                                                                      01820000
 O D DE DI D                                                           X01830000
DISPLAY A DEPARTMENT (AND ITS MANAGER)                                 X01840000
                                                                       X01850000
                                                                       X01860000
                                                                       X01870000
PFK: 02=RESEND 03=END                                                  X01880000
01                                                                      01890000
 O U DE DI S                                                           X01900000
SELECTING A DEPARTMENT TO UPDATE                                       X01910000
DEPARTMENT ID                                                          X01920000
SELECT A DEPARTMENT FROM FOLLOWING LIST BY SPECIFYING THE LINE NUMBER  X01930000
SELECT A DEPARTMENT FROM FOLLOWING LIST BY SPECIFYING THE LINE NUMBER  X01940000
PFK: 02=RESEND 03=END 08=NEXT                                          X01950000
03                                                                      01960000
 O U DE DN S                                                           X01970000
SELECTING A DEPARTMENT TO UPDATE                                       X01980000
DEPARTMENT NAME                                                        X01990000
SELECT A DEPARTMENT FROM FOLLOWING LIST BY SPECIFYING THE LINE NUMBER  X02000000
SELECT A DEPARTMENT FROM FOLLOWING LIST BY SPECIFYING THE LINE NUMBER  X02010000
PFK: 02=RESEND 03=END 08=NEXT                                          X02020000
03                                                                      02030000
 O U DE MI S                                                           X02040000
SELECTING A DEPARTMENT TO UPDATE                                       X02050000
MANAGER ID                                                             X02060000
SELECT A DEPARTMENT FROM FOLLOWING LIST BY SPECIFYING THE LINE NUMBER  X02070000
SELECT A DEPARTMENT FROM FOLLOWING LIST BY SPECIFYING THE LINE NUMBER  X02080000
PFK: 02=RESEND 03=END 08=NEXT                                          X02090000
03                                                                      02100000
 O U DE MN S                                                           X02110000
SELECTING A DEPARTMENT TO UPDATE                                       X02120000
MANAGER NAME                                                           X02130000
SELECT A DEPARTMENT FROM FOLLOWING LIST BY SPECIFYING THE LINE NUMBER  X02140000
SELECT A DEPARTMENT FROM FOLLOWING LIST BY SPECIFYING THE LINE NUMBER  X02150000
PFK: 02=RESEND 03=END 08=NEXT                                          X02160000
03                                                                      02170000
 O U DE DI D                                                           X02180000
UPDATING A DEPARTMENT                                                  X02190000
                                                                       X02200000
MODIFY DEPARTMENT VALUES:                                              X02210000
MODIFY DEPARTMENT VALUES:                                              X02220000
PFK: 02=RESEND 03=END                                                  X02230000
01                                                                      02240000
 O E DE DI S                                                           X02250000
SELECTING A DEPARTMENT TO ERASE                                        X02260000
DEPARTMENT ID                                                          X02270000
SELECT A DEPARTMENT FROM FOLLOWING LIST BY SPECIFYING THE LINE NUMBER  X02280000
SELECT A DEPARTMENT FROM FOLLOWING LIST BY SPECIFYING THE LINE NUMBER  X02290000
PFK: 02=RESEND 03=END 08=NEXT                                          X02300000
03                                                                      02310000
 O E DE DN S                                                           X02320000
SELECTING A DEPARTMENT TO ERASE                                        X02330000
DEPARTMENT NAME                                                        X02340000
SELECT A DEPARTMENT FROM FOLLOWING LIST BY SPECIFYING THE LINE NUMBER  X02350000
SELECT A DEPARTMENT FROM FOLLOWING LIST BY SPECIFYING THE LINE NUMBER  X02360000
PFK: 02=RESEND 03=END 08=NEXT                                          X02370000
03                                                                      02380000
 O E DE MI S                                                           X02390000
SELECTING A DEPARTMENT TO ERASE                                        X02400000
MANAGER ID                                                             X02410000
SELECT A DEPARTMENT FROM FOLLOWING LIST BY SPECIFYING THE LINE NUMBER  X02420000
SELECT A DEPARTMENT FROM FOLLOWING LIST BY SPECIFYING THE LINE NUMBER  X02430000
PFK: 02=RESEND 03=END 08=NEXT                                          X02440000
03                                                                      02450000
 O E DE MN S                                                           X02460000
SELECTING A DEPARTMENT TO ERASE                                        X02470000
MANAGER NAME                                                           X02480000
SELECT A DEPARTMENT FROM FOLLOWING LIST BY SPECIFYING THE LINE NUMBER  X02490000
SELECT A DEPARTMENT FROM FOLLOWING LIST BY SPECIFYING THE LINE NUMBER  X02500000
PFK: 02=RESEND 03=END 08=NEXT                                          X02510000
03                                                                      02520000
 O E DE DI D                                                           X02530000
ERASING A DEPARTMENT                                                   X02540000
                                                                       X02550000
HIT ENTER TO ERASE A DEPARTMENT                                        X02560000
HIT ENTER TO ERASE A DEPARTMENT                                        X02570000
PFK: 02=RESEND 03=END                                                  X02580000
01                                                                      02590000
 O A DE DI D                                                           X02600000
ADDING A NEW DEPARTMENT                                                X02610000
                                                                       X02620000
ENTER DEPARTMENT VALUES:                                               X02630000
ENTER DEPARTMENT VALUES:                                               X02640000
PFK: 02=RESEND 03=END                                                  X02650000
01                                                                      02660000
 O A DE DN                                                             X02670000
                                                                       X02680000
DEPARTMENT NAME                                                        X02690000
                                                                       X02700000
                                                                       X02710000
                                                                       X02720000
                                                                        02730000
 O A DE MI                                                             X02740000
                                                                       X02750000
MANAGER ID                                                             X02760000
                                                                       X02770000
                                                                       X02780000
                                                                       X02790000
                                                                        02800000
 O A EM DI                                                             X02810000
                                                                       X02820000
DEPARTMENT ID                                                          X02830000
                                                                       X02840000
                                                                       X02850000
                                                                       X02860000
                                                                        02870000
 O A EM EI D                                                           X02880000
ADDING A NEW EMPLOYEE                                                  X02890000
                                                                       X02900000
ENTER EMPLOYEE VALUES:                                                 X02910000
ENTER EMPLOYEE VALUES:                                                 X02920000
PFK: 02=RESEND 03=END                                                  X02930000
02                                                                      02940000
 O A EM EN                                                             X02950000
                                                                       X02960000
EMPLOYEE NAME                                                          X02970000
                                                                       X02980000
                                                                       X02990000
                                                                       X03000000
                                                                        03010000
 O D EM DI S                                                           X03020000
SELECTING AN EMPLOYEE TO DISPLAY                                       X03030000
DEPARTMENT ID                                                          X03040000
SELECT AN EMPLOYEE FROM FOLLOWING LIST BY SPECIFYING THE LINE NUMBER   X03050000
SELECT AN EMPLOYEE FROM FOLLOWING LIST BY SPECIFYING THE LINE NUMBER   X03060000
PFK: 02=RESEND 03=END 08=NEXT                                          X03070000
05                                                                      03080000
 O D EM DN S                                                           X03090000
SELECTING AN EMPLOYEE TO DISPLAY                                       X03100000
DEPARTMENT NAME                                                        X03110000
SELECT AN EMPLOYEE FROM FOLLOWING LIST BY SPECIFYING THE LINE NUMBER   X03120000
SELECT AN EMPLOYEE FROM FOLLOWING LIST BY SPECIFYING THE LINE NUMBER   X03130000
PFK: 02=RESEND 03=END 08=NEXT                                          X03140000
05                                                                      03150000
 O D EM EI S                                                           X03160000
SELECTING AN EMPLOYEE TO DISPLAY                                       X03170000
EMPLOYEE ID                                                            X03180000
SELECT AN EMPLOYEE FROM FOLLOWING LIST BY SPECIFYING THE LINE NUMBER   X03190000
SELECT AN EMPLOYEE FROM FOLLOWING LIST BY SPECIFYING THE LINE NUMBER   X03200000
PFK: 02=RESEND 03=END 08=NEXT                                          X03210000
05                                                                      03220000
 O D EM EN S                                                           X03230000
SELECTING AN EMPLOYEE TO DISPLAY                                       X03240000
EMPLOYEE NAME                                                          X03250000
SELECT AN EMPLOYEE FROM FOLLOWING LIST BY SPECIFYING THE LINE NUMBER   X03260000
SELECT AN EMPLOYEE FROM FOLLOWING LIST BY SPECIFYING THE LINE NUMBER   X03270000
PFK: 02=RESEND 03=END 08=NEXT                                          X03280000
05                                                                      03290000
 O D EM EI D                                                           X03300000
DISPLAYING AN EMPLOYEE AND HIS/HER DEPARTMENT                          X03310000
                                                                       X03320000
                                                                       X03330000
                                                                       X03340000
PFK: 02=RESEND 03=END                                                  X03350000
02                                                                      03360000
 O U EM DI S                                                           X03370000
SELECTING AN EMPLOYEE TO UPDATE                                        X03380000
DEPARTMENT ID                                                          X03390000
SELECT AN EMPLOYEE FROM FOLLOWING LIST BY SPECIFYING THE LINE NUMBER   X03400000
SELECT AN EMPLOYEE FROM FOLLOWING LIST BY SPECIFYING THE LINE NUMBER   X03410000
PFK: 02=RESEND 03=END 08=NEXT                                          X03420000
05                                                                      03430000
 O U EM DN S                                                           X03440000
SELECTING AN EMPLOYEE TO UPDATE                                        X03450000
DEPARTMENT NAME                                                        X03460000
SELECT AN EMPLOYEE FROM FOLLOWING LIST BY SPECIFYING THE LINE NUMBER   X03470000
SELECT AN EMPLOYEE FROM FOLLOWING LIST BY SPECIFYING THE LINE NUMBER   X03480000
PFK: 02=RESEND 03=END 08=NEXT                                          X03490000
05                                                                      03500000
 O U EM EI S                                                           X03510000
SELECTING AN EMPLOYEE TO UPDATE                                        X03520000
EMPLOYEE ID                                                            X03530000
SELECT AN EMPLOYEE FROM FOLLOWING LIST BY SPECIFYING THE LINE NUMBER   X03540000
SELECT AN EMPLOYEE FROM FOLLOWING LIST BY SPECIFYING THE LINE NUMBER   X03550000
PFK: 02=RESEND 03=END 08=NEXT                                          X03560000
05                                                                      03570000
 O U EM EN S                                                           X03580000
SELECTING AN EMPLOYEE TO UPDATE                                        X03590000
EMPLOYEE NAME                                                          X03600000
SELECT AN EMPLOYEE FROM FOLLOWING LIST BY SPECIFYING THE LINE NUMBER   X03610000
SELECT AN EMPLOYEE FROM FOLLOWING LIST BY SPECIFYING THE LINE NUMBER   X03620000
PFK: 02=RESEND 03=END 08=NEXT                                          X03630000
05                                                                      03640000
 O U EM EI D                                                           X03650000
UPDATING AN EMPLOYEE                                                   X03660000
                                                                       X03670000
MODIFY EMPLOYEE VALUES:                                                X03680000
MODIFY EMPLOYEE VALUES:                                                X03690000
PFK: 02=RESEND 03=END                                                  X03700000
02                                                                      03710000
 O E EM DI S                                                           X03720000
SELECTING AN EMPLOYEE TO ERASE                                         X03730000
DEPARTMENT ID                                                          X03740000
SELECT AN EMPLOYEE FROM FOLLOWING LIST BY SPECIFYING THE LINE NUMBER   X03750000
SELECT AN EMPLOYEE FROM FOLLOWING LIST BY SPECIFYING THE LINE NUMBER   X03760000
PFK: 02=RESEND 03=END 08=NEXT                                          X03770000
05                                                                      03780000
 O E EM DN S                                                           X03790000
SELECTING AN EMPLOYEE TO ERASE                                         X03800000
DEPARTMENT NAME                                                        X03810000
SELECT AN EMPLOYEE FROM FOLLOWING LIST BY SPECIFYING THE LINE NUMBER   X03820000
SELECT AN EMPLOYEE FROM FOLLOWING LIST BY SPECIFYING THE LINE NUMBER   X03830000
PFK: 02=RESEND 03=END 08=NEXT                                          X03840000
05                                                                      03850000
 O E EM EI S                                                           X03860000
SELECTING AN EMPLOYEE TO ERASE                                         X03870000
EMPLOYEE ID                                                            X03880000
SELECT AN EMPLOYEE FROM FOLLOWING LIST BY SPECIFYING THE LINE NUMBER   X03890000
SELECT AN EMPLOYEE FROM FOLLOWING LIST BY SPECIFYING THE LINE NUMBER   X03900000
PFK: 02=RESEND 03=END 08=NEXT                                          X03910000
05                                                                      03920000
 O E EM EN S                                                           X03930000
SELECTING AN EMPLOYEE TO ERASE                                         X03940000
EMPLOYEE NAME                                                          X03950000
SELECT AN EMPLOYEE FROM FOLLOWING LIST BY SPECIFYING THE LINE NUMBER   X03960000
SELECT AN EMPLOYEE FROM FOLLOWING LIST BY SPECIFYING THE LINE NUMBER   X03970000
PFK: 02=RESEND 03=END 08=NEXT                                          X03980000
05                                                                      03990000
 O E EM EI D                                                           X04000000
ERASING AN EMPLOYEE                                                    X04010000
                                                                       X04020000
HIT ENTER TO ERASE AN EMPLOYEE                                         X04030000
HIT ENTER TO ERASE AN EMPLOYEE                                         X04040000
PFK: 02=RESEND 03=END                                                  X04050000
02                                                                      04060000
 P A                                                                   X04070000
OBJECT SELECTION                                                       X04080000
ADD (INSERT)                                                           X04090000
SELECT AN OBJECT FROM FOLLOWING LIST                                   X04100000
SELECT AN OBJECT FROM FOLLOWING LIST                                   X04110000
PFK: 02=RESEND 03=END                                                  X04120000
                                                                        04130000
 P D                                                                   X04140000
OBJECT SELECTION                                                       X04150000
DISPLAY (SHOW)                                                         X04160000
SELECT AN OBJECT FROM FOLLOWING LIST                                   X04170000
SELECT AN OBJECT FROM FOLLOWING LIST                                   X04180000
PFK: 02=RESEND 03=END                                                  X04190000
                                                                        04200000
 P E                                                                   X04210000
OBJECT SELECTION                                                       X04220000
ERASE (REMOVE)                                                         X04230000
SELECT AN OBJECT FROM FOLLOWING LIST                                   X04240000
SELECT AN OBJECT FROM FOLLOWING LIST                                   X04250000
PFK: 02=RESEND 03=END                                                  X04260000
                                                                        04270000
 P U                                                                   X04280000
OBJECT SELECTION                                                       X04290000
UPDATE (CHANGE)                                                        X04300000
SELECT AN OBJECT FROM FOLLOWING LIST                                   X04310000
SELECT AN OBJECT FROM FOLLOWING LIST                                   X04320000
PFK: 02=RESEND 03=END                                                  X04330000
                                                                        04340000
 P D PS                                                                X04350000
SEARCH CRITERIA SPECIFICATION                                          X04360000
PROJECT STRUCTURE                                                      X04370000
SPECIFY A SEARCH CRITERION FROM THE LIST AND DATA                      X04380000
SPECIFY A SEARCH CRITERION FROM THE LIST AND DATA                      X04390000
PFK: 02=RESEND 03=END                                                  X04400000
                                                                        04410000
 P D AL                                                                X04420000
SEARCH CRITERIA SPECIFICATION                                          X04430000
ACTIVITY LIST                                                          X04440000
SPECIFY A SEARCH CRITERION FROM THE LIST AND DATA                      X04450000
SPECIFY A SEARCH CRITERION FROM THE LIST AND DATA                      X04460000
PFK: 02=RESEND 03=END                                                  X04470000
                                                                        04480000
 P D PR                                                                X04490000
SEARCH CRITERIA SPECIFICATION                                          X04500000
INDIVIDUAL PROJECT                                                     X04510000
SPECIFY A SEARCH CRITERION FROM THE LIST AND DATA                      X04520000
SPECIFY A SEARCH CRITERION FROM THE LIST AND DATA                      X04530000
PFK: 02=RESEND 03=END                                                  X04540000
                                                                        04550000
 P U PR                                                                X04560000
SEARCH CRITERIA SPECIFICATION                                          X04570000
INDIVIDUAL PROJECT                                                     X04580000
SPECIFY A SEARCH CRITERION FROM THE LIST AND DATA                      X04590000
SPECIFY A SEARCH CRITERION FROM THE LIST AND DATA                      X04600000
PFK: 02=RESEND 03=END                                                  X04610000
                                                                        04620000
 P E PR                                                                X04630000
SEARCH CRITERIA SPECIFICATION                                          X04640000
INDIVIDUAL PROJECT                                                     X04650000
SPECIFY A SEARCH CRITERION FROM THE LIST AND DATA                      X04660000
SPECIFY A SEARCH CRITERION FROM THE LIST AND DATA                      X04670000
PFK: 02=RESEND 03=END                                                  X04680000
                                                                        04690000
 P A PR                                                                X04700000
SEARCH CRITERIA SPECIFICATION                                          X04710000
INDIVIDUAL PROJECT                                                     X04720000
SPECIFY A SEARCH CRITERION FROM THE LIST AND DATA                      X04730000
SPECIFY A SEARCH CRITERION FROM THE LIST AND DATA                      X04740000
PFK: 02=RESEND 03=END                                                  X04750000
                                                                        04760000
 P D AE                                                                X04770000
SEARCH CRITERIA SPECIFICATION                                          X04780000
ACTIVITY ESTIMATE                                                      X04790000
SPECIFY A SEARCH CRITERION FROM THE LIST AND DATA                      X04800000
SPECIFY A SEARCH CRITERION FROM THE LIST AND DATA                      X04810000
PFK: 02=RESEND 03=END                                                  X04820000
                                                                        04830000
 P U AE                                                                X04840000
SEARCH CRITERIA SPECIFICATION                                          X04850000
ACTIVITY ESTIMATE                                                      X04860000
SPECIFY A SEARCH CRITERION FROM THE LIST AND DATA                      X04870000
SPECIFY A SEARCH CRITERION FROM THE LIST AND DATA                      X04880000
PFK: 02=RESEND 03=END                                                  X04890000
                                                                        04900000
 P E AE                                                                X04910000
SEARCH CRITERIA SPECIFICATION                                          X04920000
ACTIVITY ESTIMATE                                                      X04930000
SPECIFY A SEARCH CRITERION FROM THE LIST AND DATA                      X04940000
SPECIFY A SEARCH CRITERION FROM THE LIST AND DATA                      X04950000
PFK: 02=RESEND 03=END                                                  X04960000
                                                                        04970000
 P A AE                                                                X04980000
SEARCH CRITERIA SPECIFICATION                                          X04990000
ACTIVITY ESTIMATE                                                      X05000000
SPECIFY A SEARCH CRITERION FROM THE LIST AND DATA                      X05010000
SPECIFY A SEARCH CRITERION FROM THE LIST AND DATA                      X05020000
PFK: 02=RESEND 03=END                                                  X05030000
                                                                        05040000
 P D AS                                                                X05050000
SEARCH CRITERIA SPECIFICATION                                          X05060000
ACTIVITY STAFFING                                                      X05070000
SPECIFY A SEARCH CRITERION FROM THE LIST AND DATA                      X05080000
SPECIFY A SEARCH CRITERION FROM THE LIST AND DATA                      X05090000
PFK: 02=RESEND 03=END                                                  X05100000
                                                                        05110000
 P U AS                                                                X05120000
SEARCH CRITERIA SPECIFICATION                                          X05130000
ACTIVITY STAFFING                                                      X05140000
SPECIFY A SEARCH CRITERION FROM THE LIST AND DATA                      X05150000
SPECIFY A SEARCH CRITERION FROM THE LIST AND DATA                      X05160000
PFK: 02=RESEND 03=END                                                  X05170000
                                                                        05180000
 P E AS                                                                X05190000
SEARCH CRITERIA SPECIFICATION                                          X05200000
ACTIVITY STAFFING                                                      X05210000
SPECIFY A SEARCH CRITERION FROM THE LIST AND DATA                      X05220000
SPECIFY A SEARCH CRITERION FROM THE LIST AND DATA                      X05230000
PFK: 02=RESEND 03=END                                                  X05240000
                                                                        05250000
 P A AS                                                                X05260000
SEARCH CRITERIA SPECIFICATION                                          X05270000
ACTIVITY STAFFING                                                      X05280000
SPECIFY A SEARCH CRITERION FROM THE LIST AND DATA                      X05290000
SPECIFY A SEARCH CRITERION FROM THE LIST AND DATA                      X05300000
PFK: 02=RESEND 03=END                                                  X05310000
                                                                        05320000
 P D PS DI S                                                           X05330000
PROJECT STRUCTURE SELECTION                                            X05340000
DEPARTMENT ID                                                          X05350000
SELECT A PROJECT FROM FOLLOWING LIST BY SPECIFYING THE LINE NUMBER     X05360000
SELECT A PROJECT FROM FOLLOWING LIST BY SPECIFYING THE LINE NUMBER     X05370000
PFK: 02=RESEND 03=END 08=NEXT                                          X05380000
09                                                                      05390000
 P D PS DN S                                                           X05400000
PROJECT STRUCTURE SELECTION                                            X05410000
DEPARTMENT NAME                                                        X05420000
SELECT A PROJECT FROM FOLLOWING LIST BY SPECIFYING THE LINE NUMBER     X05430000
SELECT A PROJECT FROM FOLLOWING LIST BY SPECIFYING THE LINE NUMBER     X05440000
PFK: 02=RESEND 03=END 08=NEXT                                          X05450000
09                                                                      05460000
 P D PS EI S                                                           X05470000
PROJECT STRUCTURE SELECTION                                            X05480000
EMPLOYEE ID                                                            X05490000
SELECT A PROJECT FROM FOLLOWING LIST BY SPECIFYING THE LINE NUMBER     X05500000
SELECT A PROJECT FROM FOLLOWING LIST BY SPECIFYING THE LINE NUMBER     X05510000
PFK: 02=RESEND 03=END 08=NEXT                                          X05520000
09                                                                      05530000
 P D PS EN S                                                           X05540000
PROJECT STRUCTURE SELECTION                                            X05550000
EMPLOYEE NAME                                                          X05560000
SELECT A PROJECT FROM FOLLOWING LIST BY SPECIFYING THE LINE NUMBER     X05570000
SELECT A PROJECT FROM FOLLOWING LIST BY SPECIFYING THE LINE NUMBER     X05580000
PFK: 02=RESEND 03=END 08=NEXT                                          X05590000
09                                                                      05600000
 P D PS PI S                                                           X05610000
PROJECT STRUCTURE SELECTION                                            X05620000
PROJECT ID                                                             X05630000
SELECT A PROJECT FROM FOLLOWING LIST BY SPECIFYING THE LINE NUMBER     X05640000
SELECT A PROJECT FROM FOLLOWING LIST BY SPECIFYING THE LINE NUMBER     X05650000
PFK: 02=RESEND 03=END 08=NEXT                                          X05660000
09                                                                      05670000
 P D PS PN S                                                           X05680000
PROJECT STRUCTURE SELECTION                                            X05690000
PROJECT NAME                                                           X05700000
SELECT A PROJECT FROM FOLLOWING LIST BY SPECIFYING THE LINE NUMBER     X05710000
SELECT A PROJECT FROM FOLLOWING LIST BY SPECIFYING THE LINE NUMBER     X05720000
PFK: 02=RESEND 03=END 08=NEXT                                          X05730000
09                                                                      05740000
 P D PS RI S                                                           X05750000
PROJECT STRUCTURE SELECTION                                            X05760000
RESPONSIBLE ID                                                         X05770000
SELECT A PROJECT FROM FOLLOWING LIST BY SPECIFYING THE LINE NUMBER     X05780000
SELECT A PROJECT FROM FOLLOWING LIST BY SPECIFYING THE LINE NUMBER     X05790000
PFK: 02=RESEND 03=END 08=NEXT                                          X05800000
09                                                                      05810000
 P D PS RN S                                                           X05820000
PROJECT STRUCTURE SELECTION                                            X05830000
RESPONSIBLE NAME                                                       X05840000
SELECT A PROJECT FROM FOLLOWING LIST BY SPECIFYING THE LINE NUMBER     X05850000
SELECT A PROJECT FROM FOLLOWING LIST BY SPECIFYING THE LINE NUMBER     X05860000
PFK: 02=RESEND 03=END 08=NEXT                                          X05870000
09                                                                      05880000
 P D AL DI S                                                           X05890000
PROJECT ACTIVITY LIST SELECTION                                        X05900000
DEPARTMENT ID                                                          X05910000
SELECT AN ENTRY FROM FOLLOWING LIST BY SPECIFYING THE LINE NUMBER      X05920000
SELECT AN ENTRY FROM FOLLOWING LIST BY SPECIFYING THE LINE NUMBER      X05930000
PFK: 02=RESEND 03=END 08=NEXT                                          X05940000
10                                                                      05950000
 P D AL DN S                                                           X05960000
PROJECT ACTIVITY LIST SELECTION                                        X05970000
DEPARTMENT NAME                                                        X05980000
SELECT AN ENTRY FROM FOLLOWING LIST BY SPECIFYING THE LINE NUMBER      X05990000
SELECT AN ENTRY FROM FOLLOWING LIST BY SPECIFYING THE LINE NUMBER      X06000000
PFK: 02=RESEND 03=END 08=NEXT                                          X06010000
10                                                                      06020000
 P D AL EI S                                                           X06030000
PROJECT ACTIVITY LIST SELECTION                                        X06040000
EMPLOYEE ID                                                            X06050000
SELECT AN ENTRY FROM FOLLOWING LIST BY SPECIFYING THE LINE NUMBER      X06060000
SELECT AN ENTRY FROM FOLLOWING LIST BY SPECIFYING THE LINE NUMBER      X06070000
PFK: 02=RESEND 03=END 08=NEXT                                          X06080000
10                                                                      06090000
 P D AL EN S                                                           X06100000
PROJECT ACTIVITY LIST SELECTION                                        X06110000
EMPLOYEE NAME                                                          X06120000
SELECT AN ENTRY FROM FOLLOWING LIST BY SPECIFYING THE LINE NUMBER      X06130000
SELECT AN ENTRY FROM FOLLOWING LIST BY SPECIFYING THE LINE NUMBER      X06140000
PFK: 02=RESEND 03=END 08=NEXT                                          X06150000
10                                                                      06160000
 P D AL PI S                                                           X06170000
PROJECT ACTIVITY LIST SELECTION                                        X06180000
PROJECT ID                                                             X06190000
SELECT AN ENTRY FROM FOLLOWING LIST BY SPECIFYING THE LINE NUMBER      X06200000
SELECT AN ENTRY FROM FOLLOWING LIST BY SPECIFYING THE LINE NUMBER      X06210000
PFK: 02=RESEND 03=END 08=NEXT                                          X06220000
10                                                                      06230000
 P D AL PN S                                                           X06240000
PROJECT ACTIVITY LIST SELECTION                                        X06250000
PROJECT NAME                                                           X06260000
SELECT AN ENTRY FROM FOLLOWING LIST BY SPECIFYING THE LINE NUMBER      X06270000
SELECT AN ENTRY FROM FOLLOWING LIST BY SPECIFYING THE LINE NUMBER      X06280000
PFK: 02=RESEND 03=END 08=NEXT                                          X06290000
10                                                                      06300000
 P D AL RI S                                                           X06310000
PROJECT ACTIVITY LIST SELECTION                                        X06320000
RESPONSIBLE ID                                                         X06330000
SELECT AN ENTRY FROM FOLLOWING LIST BY SPECIFYING THE LINE NUMBER      X06340000
SELECT AN ENTRY FROM FOLLOWING LIST BY SPECIFYING THE LINE NUMBER      X06350000
PFK: 02=RESEND 03=END 08=NEXT                                          X06360000
10                                                                      06370000
 P D AL RN S                                                           X06380000
PROJECT ACTIVITY LIST SELECTION                                        X06390000
RESPONSIBLE NAME                                                       X06400000
SELECT AN ENTRY FROM FOLLOWING LIST BY SPECIFYING THE LINE NUMBER      X06410000
SELECT AN ENTRY FROM FOLLOWING LIST BY SPECIFYING THE LINE NUMBER      X06420000
PFK: 02=RESEND 03=END 08=NEXT                                          X06430000
10                                                                      06440000
 P D PS PI D                                                           X06450000
PROJECT STRUCTURE                                                      X06460000
                                                                       X06470000
                                                                       X06480000
                                                                       X06490000
PFK: 02=RESEND 03=END 08=NEXT 10=LEFT                                  X06500000
14                                                                      06510000
 P D AL PI D                                                           X06520000
PROJECT ACTIVITY LISTING                                               X06530000
                                                                       X06540000
                                                                       X06550000
                                                                       X06560000
PFK: 02=RESEND 03=END 08=NEXT                                          X06570000
15                                                                      06580000
 P D PR DI S                                                           X06590000
INDIVIDUAL PROJECT SELECTION (FOR DISPLAYING)                          X06600000
DEPARTMENT ID                                                          X06610000
SELECT A PROJECT FROM FOLLOWING LIST BY SPECIFYING THE LINE NUMBER     X06620000
SELECT A PROJECT FROM FOLLOWING LIST BY SPECIFYING THE LINE NUMBER     X06630000
PFK: 02=RESEND 03=END 08=NEXT                                          X06640000
11                                                                      06650000
 P D PR PI S                                                           X06660000
INDIVIDUAL PROJECT SELECTION (FOR DISPLAYING)                          X06670000
PROJECT ID                                                             X06680000
SELECT A PROJECT FROM FOLLOWING LIST BY SPECIFYING THE LINE NUMBER     X06690000
SELECT A PROJECT FROM FOLLOWING LIST BY SPECIFYING THE LINE NUMBER     X06700000
PFK: 02=RESEND 03=END 08=NEXT                                          X06710000
11                                                                      06720000
 P D PR PN S                                                           X06730000
INDIVIDUAL PROJECT SELECTION (FOR DISPLAYING)                          X06740000
PROJECT NAME                                                           X06750000
SELECT A PROJECT FROM FOLLOWING LIST BY SPECIFYING THE LINE NUMBER     X06760000
SELECT A PROJECT FROM FOLLOWING LIST BY SPECIFYING THE LINE NUMBER     X06770000
PFK: 02=RESEND 03=END 08=NEXT                                          X06780000
11                                                                      06790000
 P D PR RI S                                                           X06800000
INDIVIDUAL PROJECT SELECTION (FOR DISPLAYING)                          X06810000
RESPONSIBLE ID                                                         X06820000
SELECT A PROJECT FROM FOLLOWING LIST BY SPECIFYING THE LINE NUMBER     X06830000
SELECT A PROJECT FROM FOLLOWING LIST BY SPECIFYING THE LINE NUMBER     X06840000
PFK: 02=RESEND 03=END 08=NEXT                                          X06850000
11                                                                      06860000
 P D PR RN S                                                           X06870000
INDIVIDUAL PROJECT SELECTION (FOR DISPLAYING)                          X06880000
RESPONSIBLE NAME                                                       X06890000
SELECT A PROJECT FROM FOLLOWING LIST BY SPECIFYING THE LINE NUMBER     X06900000
SELECT A PROJECT FROM FOLLOWING LIST BY SPECIFYING THE LINE NUMBER     X06910000
PFK: 02=RESEND 03=END 08=NEXT                                          X06920000
11                                                                      06930000
 P D PR PI D                                                           X06940000
DISPLAY OF AN INDIVIDUAL PROJECT                                       X06950000
                                                                       X06960000
                                                                       X06970000
                                                                       X06980000
PFK: 02=RESEND 03=END                                                  X06990000
06                                                                      07000000
 P U PR DI S                                                           X07010000
INDIVIDUAL PROJECT SELECTION (FOR UPDATING)                            X07020000
DEPARTMENT ID                                                          X07030000
SELECT A PROJECT FROM FOLLOWING LIST BY SPECIFYING THE LINE NUMBER     X07040000
SELECT A PROJECT FROM FOLLOWING LIST BY SPECIFYING THE LINE NUMBER     X07050000
PFK: 02=RESEND 03=END 08=NEXT                                          X07060000
11                                                                      07070000
 P U PR PI S                                                           X07080000
INDIVIDUAL PROJECT SELECTION (FOR UPDATING)                            X07090000
PROJECT ID                                                             X07100000
SELECT A PROJECT FROM FOLLOWING LIST BY SPECIFYING THE LINE NUMBER     X07110000
SELECT A PROJECT FROM FOLLOWING LIST BY SPECIFYING THE LINE NUMBER     X07120000
PFK: 02=RESEND 03=END 08=NEXT                                          X07130000
11                                                                      07140000
 P U PR PN S                                                           X07150000
INDIVIDUAL PROJECT SELECTION (FOR UPDATING)                            X07160000
PROJECT NAME                                                           X07170000
SELECT A PROJECT FROM FOLLOWING LIST BY SPECIFYING THE LINE NUMBER     X07180000
SELECT A PROJECT FROM FOLLOWING LIST BY SPECIFYING THE LINE NUMBER     X07190000
PFK: 02=RESEND 03=END 08=NEXT                                          X07200000
11                                                                      07210000
 P U PR RI S                                                           X07220000
INDIVIDUAL PROJECT SELECTION (FOR UPDATING)                            X07230000
RESPONSIBLE ID                                                         X07240000
SELECT A PROJECT FROM FOLLOWING LIST BY SPECIFYING THE LINE NUMBER     X07250000
SELECT A PROJECT FROM FOLLOWING LIST BY SPECIFYING THE LINE NUMBER     X07260000
PFK: 02=RESEND 03=END 08=NEXT                                          X07270000
11                                                                      07280000
 P U PR RN S                                                           X07290000
INDIVIDUAL PROJECT SELECTION (FOR UPDATING)                            X07300000
RESPONSIBLE NAME                                                       X07310000
SELECT A PROJECT FROM FOLLOWING LIST BY SPECIFYING THE LINE NUMBER     X07320000
SELECT A PROJECT FROM FOLLOWING LIST BY SPECIFYING THE LINE NUMBER     X07330000
PFK: 02=RESEND 03=END 08=NEXT                                          X07340000
11                                                                      07350000
 P U PR PI D                                                           X07360000
UPDATE OF AN INDIVIDUAL PROJECT                                        X07370000
                                                                       X07380000
ENTER MODIFIED VALUES BELOW                                            X07390000
ENTER MODIFIED VALUES BELOW                                            X07400000
PFK: 02=RESEND 03=END                                                  X07410000
06                                                                      07420000
 P E PR DI S                                                           X07430000
INDIVIDUAL PROJECT SELECTION (FOR ERASING)                             X07440000
DEPARTMENT ID                                                          X07450000
SELECT A PROJECT FROM FOLLOWING LIST BY SPECIFYING THE LINE NUMBER     X07460000
SELECT A PROJECT FROM FOLLOWING LIST BY SPECIFYING THE LINE NUMBER     X07470000
PFK: 02=RESEND 03=END 08=NEXT                                          X07480000
11                                                                      07490000
 P E PR PI S                                                           X07500000
INDIVIDUAL PROJECT SELECTION (FOR ERASING)                             X07510000
PROJECT ID                                                             X07520000
SELECT A PROJECT FROM FOLLOWING LIST BY SPECIFYING THE LINE NUMBER     X07530000
SELECT A PROJECT FROM FOLLOWING LIST BY SPECIFYING THE LINE NUMBER     X07540000
PFK: 02=RESEND 03=END 08=NEXT                                          X07550000
11                                                                      07560000
 P E PR PN S                                                           X07570000
INDIVIDUAL PROJECT SELECTION (FOR ERASING)                             X07580000
PROJECT NAME                                                           X07590000
SELECT A PROJECT FROM FOLLOWING LIST BY SPECIFYING THE LINE NUMBER     X07600000
SELECT A PROJECT FROM FOLLOWING LIST BY SPECIFYING THE LINE NUMBER     X07610000
PFK: 02=RESEND 03=END 08=NEXT                                          X07620000
11                                                                      07630000
 P E PR RI S                                                           X07640000
INDIVIDUAL PROJECT SELECTION (FOR ERASING)                             X07650000
RESPONSIBLE ID                                                         X07660000
SELECT A PROJECT FROM FOLLOWING LIST BY SPECIFYING THE LINE NUMBER     X07670000
SELECT A PROJECT FROM FOLLOWING LIST BY SPECIFYING THE LINE NUMBER     X07680000
PFK: 02=RESEND 03=END 08=NEXT                                          X07690000
11                                                                      07700000
 P E PR RN S                                                           X07710000
INDIVIDUAL PROJECT SELECTION (FOR ERASING)                             X07720000
RESPONSIBLE NAME                                                       X07730000
SELECT A PROJECT FROM FOLLOWING LIST BY SPECIFYING THE LINE NUMBER     X07740000
SELECT A PROJECT FROM FOLLOWING LIST BY SPECIFYING THE LINE NUMBER     X07750000
PFK: 02=RESEND 03=END 08=NEXT                                          X07760000
11                                                                      07770000
 P E PR PI D                                                           X07780000
ERASING OF AN INDIVIDUAL PROJECT                                       X07790000
                                                                       X07800000
HIT ENTER TO ERASE THE PROJECT                                         X07810000
HIT ENTER TO ERASE THE PROJECT                                         X07820000
PFK: 02=RESEND 03=END                                                  X07830000
06                                                                      07840000
 P A PR DI                                                             X07850000
                                                                       X07860000
DEPARTMENT ID                                                          X07870000
                                                                       X07880000
                                                                       X07890000
                                                                       X07900000
                                                                        07910000
 P A PR PI D                                                           X07920000
ADDING OF AN INDIVIDUAL PROJECT                                        X07930000
                                                                       X07940000
ENTER DESIRED VALUES BELOW                                             X07950000
ENTER DESIRED VALUES BELOW                                             X07960000
PFK: 02=RESEND 03=END 08=NEXT                                          X07970000
06                                                                      07980000
 P A PR PN                                                             X07990000
                                                                       X08000000
PROJECT NAME                                                           X08010000
                                                                       X08020000
                                                                       X08030000
                                                                       X08040000
                                                                        08050000
 P A PR RI                                                             X08060000
                                                                       X08070000
RESPONSIBLE ID                                                         X08080000
                                                                       X08090000
                                                                       X08100000
                                                                       X08110000
                                                                        08120000
 P A AE PI D                                                           X08130000
ADDING OF ACTIVITY ESTIMATE                                            X08140000
                                                                       X08150000
ENTER DESIRED VALUES BELOW                                             X08160000
ENTER DESIRED VALUES BELOW                                             X08170000
PFK: 02=RESEND 03=END 08=NEXT                                          X08180000
08                                                                      08190000
 P A AS EI                                                             X08200000
                                                                       X08210000
EMPLOYEE ID                                                            X08220000
                                                                       X08230000
                                                                       X08240000
                                                                       X08250000
                                                                        08260000
 P A AS PI D                                                           X08270000
ADDING OF ACTIVITY STAFFING                                            X08280000
                                                                       X08290000
                                                                       X08300000
                                                                       X08310000
PFK: 02=RESEND 03=END 08=NEXT                                          X08320000
07                                                                      08330000
 P D AE PI S                                                           X08340000
ACTIVITY ESTIMATE SELECTION (FOR DISPLAYING)                           X08350000
PROJECT ID                                                             X08360000
SELECT AN ENTRY FROM FOLLOWING LIST BY SPECIFYING THE LINE NUMBER      X08370000
SELECT AN ENTRY FROM FOLLOWING LIST BY SPECIFYING THE LINE NUMBER      X08380000
PFK: 02=RESEND 03=END 08=NEXT                                          X08390000
12                                                                      08400000
 P D AE PN S                                                           X08410000
ACTIVITY ESTIMATE SELECTION (FOR DISPLAYING)                           X08420000
PROJECT NAME                                                           X08430000
SELECT AN ENTRY FROM FOLLOWING LIST BY SPECIFYING THE LINE NUMBER      X08440000
SELECT AN ENTRY FROM FOLLOWING LIST BY SPECIFYING THE LINE NUMBER      X08450000
PFK: 02=RESEND 03=END 08=NEXT                                          X08460000
12                                                                      08470000
 P D AE RI S                                                           X08480000
ACTIVITY ESTIMATE SELECTION (FOR DISPLAYING)                           X08490000
RESPONSIBLE ID                                                         X08500000
SELECT AN ENTRY FROM FOLLOWING LIST BY SPECIFYING THE LINE NUMBER      X08510000
SELECT AN ENTRY FROM FOLLOWING LIST BY SPECIFYING THE LINE NUMBER      X08520000
PFK: 02=RESEND 03=END 08=NEXT                                          X08530000
12                                                                      08540000
 P D AE RN S                                                           X08550000
ACTIVITY ESTIMATE SELECTION (FOR DISPLAYING)                           X08560000
RESPONSIBLE NAME                                                       X08570000
SELECT AN ENTRY FROM FOLLOWING LIST BY SPECIFYING THE LINE NUMBER      X08580000
SELECT AN ENTRY FROM FOLLOWING LIST BY SPECIFYING THE LINE NUMBER      X08590000
PFK: 02=RESEND 03=END 08=NEXT                                          X08600000
12                                                                      08610000
 P D AE PI D                                                           X08620000
DISPLAYING OF AN ACTIVITY ESTIMATE                                     X08630000
                                                                       X08640000
                                                                       X08650000
                                                                       X08660000
PFK: 02=RESEND 03=END                                                  X08670000
08                                                                      08680000
 P U AE PI S                                                           X08690000
ACTIVITY ESTIMATE SELECTION (FOR UPDATING)                             X08700000
PROJECT ID                                                             X08710000
SELECT AN ENTRY FROM FOLLOWING LIST BY SPECIFYING THE LINE NUMBER      X08720000
SELECT AN ENTRY FROM FOLLOWING LIST BY SPECIFYING THE LINE NUMBER      X08730000
PFK: 02=RESEND 03=END 08=NEXT                                          X08740000
12                                                                      08750000
 P U AE PN S                                                           X08760000
ACTIVITY ESTIMATE SELECTION (FOR UPDATING)                             X08770000
PROJECT NAME                                                           X08780000
SELECT AN ENTRY FROM FOLLOWING LIST BY SPECIFYING THE LINE NUMBER      X08790000
SELECT AN ENTRY FROM FOLLOWING LIST BY SPECIFYING THE LINE NUMBER      X08800000
PFK: 02=RESEND 03=END 08=NEXT                                          X08810000
12                                                                      08820000
 P U AE RI S                                                           X08830000
ACTIVITY ESTIMATE SELECTION (FOR UPDATING)                             X08840000
RESPONSIBLE ID                                                         X08850000
SELECT AN ENTRY FROM FOLLOWING LIST BY SPECIFYING THE LINE NUMBER      X08860000
SELECT AN ENTRY FROM FOLLOWING LIST BY SPECIFYING THE LINE NUMBER      X08870000
PFK: 02=RESEND 03=END 08=NEXT                                          X08880000
12                                                                      08890000
 P U AE RN S                                                           X08900000
ACTIVITY ESTIMATE SELECTION (FOR UPDATING)                             X08910000
RESPONSIBLE NAME                                                       X08920000
SELECT AN ENTRY FROM FOLLOWING LIST BY SPECIFYING THE LINE NUMBER      X08930000
SELECT AN ENTRY FROM FOLLOWING LIST BY SPECIFYING THE LINE NUMBER      X08940000
PFK: 02=RESEND 03=END 08=NEXT                                          X08950000
12                                                                      08960000
 P U AE PI D                                                           X08970000
UPDATING OF AN ACTIVITY ESTIMATE                                       X08980000
                                                                       X08990000
ENTER MODIFIED VALUES BELOW                                            X09000000
                                                                       X09010000
PFK: 02=RESEND 03=END                                                  X09020000
08                                                                      09030000
 P E AE PI S                                                           X09040000
ACTIVITY ESTIMATE SELECTION (FOR ERASING)                              X09050000
PROJECT ID                                                             X09060000
SELECT AN ENTRY FROM FOLLOWING LIST BY SPECIFYING THE LINE NUMBER      X09070000
SELECT AN ENTRY FROM FOLLOWING LIST BY SPECIFYING THE LINE NUMBER      X09080000
PFK: 02=RESEND 03=END 08=NEXT                                          X09090000
12                                                                      09100000
 P E AE PN S                                                           X09110000
ACTIVITY ESTIMATE SELECTION (FOR ERASING)                              X09120000
PROJECT NAME                                                           X09130000
SELECT AN ENTRY FROM FOLLOWING LIST BY SPECIFYING THE LINE NUMBER      X09140000
SELECT AN ENTRY FROM FOLLOWING LIST BY SPECIFYING THE LINE NUMBER      X09150000
PFK: 02=RESEND 03=END 08=NEXT                                          X09160000
12                                                                      09170000
 P E AE RI S                                                           X09180000
ACTIVITY ESTIMATE SELECTION (FOR ERASING)                              X09190000
RESPONSIBLE ID                                                         X09200000
SELECT AN ENTRY FROM FOLLOWING LIST BY SPECIFYING THE LINE NUMBER      X09210000
SELECT AN ENTRY FROM FOLLOWING LIST BY SPECIFYING THE LINE NUMBER      X09220000
PFK: 02=RESEND 03=END 08=NEXT                                          X09230000
12                                                                      09240000
 P E AE RN S                                                           X09250000
ACTIVITY ESTIMATE SELECTION (FOR ERASING)                              X09260000
RESPONSIBLE NAME                                                       X09270000
SELECT AN ENTRY FROM FOLLOWING LIST BY SPECIFYING THE LINE NUMBER      X09280000
SELECT AN ENTRY FROM FOLLOWING LIST BY SPECIFYING THE LINE NUMBER      X09290000
PFK: 02=RESEND 03=END 08=NEXT                                          X09300000
12                                                                      09310000
 P E AE PI D                                                           X09320000
ERASING OF AN ACTIVITY ESTIMATE                                        X09330000
                                                                       X09340000
HIT ENTER TO ERASE THE ACTIVITY ESTIMATE                               X09350000
                                                                       X09360000
PFK: 02=RESEND 03=END                                                  X09370000
08                                                                      09380000
 P D AS EI S                                                           X09390000
ACTIVITY STAFFING SELECTION (FOR DISPLAYING)                           X09400000
EMPLOYEE ID                                                            X09410000
SELECT AN ENTRY FROM FOLLOWING LIST BY SPECIFYING THE LINE NUMBER      X09420000
SELECT AN ENTRY FROM FOLLOWING LIST BY SPECIFYING THE LINE NUMBER      X09430000
PFK: 02=RESEND 03=END 08=NEXT                                          X09440000
13                                                                      09450000
 P D AS EN S                                                           X09460000
ACTIVITY STAFFING SELECTION (FOR DISPLAYING)                           X09470000
EMPLOYEE NAME                                                          X09480000
SELECT AN ENTRY FROM FOLLOWING LIST BY SPECIFYING THE LINE NUMBER      X09490000
SELECT AN ENTRY FROM FOLLOWING LIST BY SPECIFYING THE LINE NUMBER      X09500000
PFK: 02=RESEND 03=END 08=NEXT                                          X09510000
13                                                                      09520000
 P D AS PI S                                                           X09530000
ACTIVITY STAFFING SELECTION (FOR DISPLAYING)                           X09540000
PROJECT ID                                                             X09550000
SELECT AN ENTRY FROM FOLLOWING LIST BY SPECIFYING THE LINE NUMBER      X09560000
SELECT AN ENTRY FROM FOLLOWING LIST BY SPECIFYING THE LINE NUMBER      X09570000
PFK: 02=RESEND 03=END 08=NEXT                                          X09580000
13                                                                      09590000
 P D AS PN S                                                           X09600000
ACTIVITY STAFFING SELECTION (FOR DISPLAYING)                           X09610000
PROJECT NAME                                                           X09620000
SELECT AN ENTRY FROM FOLLOWING LIST BY SPECIFYING THE LINE NUMBER      X09630000
SELECT AN ENTRY FROM FOLLOWING LIST BY SPECIFYING THE LINE NUMBER      X09640000
PFK: 02=RESEND 03=END 08=NEXT                                          X09650000
13                                                                      09660000
 P D AS RI S                                                           X09670000
ACTIVITY STAFFING SELECTION (FOR DISPLAYING)                           X09680000
RESPONSIBLE ID                                                         X09690000
SELECT AN ENTRY FROM FOLLOWING LIST BY SPECIFYING THE LINE NUMBER      X09700000
SELECT AN ENTRY FROM FOLLOWING LIST BY SPECIFYING THE LINE NUMBER      X09710000
PFK: 02=RESEND 03=END 08=NEXT                                          X09720000
13                                                                      09730000
 P D AS RN S                                                           X09740000
ACTIVITY STAFFING SELECTION (FOR DISPLAYING)                           X09750000
RESPONSIBLE NAME                                                       X09760000
SELECT AN ENTRY FROM FOLLOWING LIST BY SPECIFYING THE LINE NUMBER      X09770000
SELECT AN ENTRY FROM FOLLOWING LIST BY SPECIFYING THE LINE NUMBER      X09780000
PFK: 02=RESEND 03=END 08=NEXT                                          X09790000
13                                                                      09800000
 P D AS PI D                                                           X09810000
DISPLAYING OF AN ACTIVITY STAFFING                                     X09820000
                                                                       X09830000
                                                                       X09840000
                                                                       X09850000
PFK: 02=RESEND 03=END                                                  X09860000
07                                                                      09870000
 P U AS EI S                                                           X09880000
ACTIVITY STAFFING SELECTION (FOR UPDATING)                             X09890000
EMPLOYEE ID                                                            X09900000
SELECT AN ENTRY FROM FOLLOWING LIST BY SPECIFYING THE LINE NUMBER      X09910000
SELECT AN ENTRY FROM FOLLOWING LIST BY SPECIFYING THE LINE NUMBER      X09920000
PFK: 02=RESEND 03=END 08=NEXT                                          X09930000
13                                                                      09940000
 P U AS EN S                                                           X09950000
ACTIVITY STAFFING SELECTION (FOR UPDATING)                             X09960000
EMPLOYEE NAME                                                          X09970000
SELECT AN ENTRY FROM FOLLOWING LIST BY SPECIFYING THE LINE NUMBER      X09980000
SELECT AN ENTRY FROM FOLLOWING LIST BY SPECIFYING THE LINE NUMBER      X09990000
PFK: 02=RESEND 03=END 08=NEXT                                          X10000000
13                                                                      10010000
 P U AS PI S                                                           X10020000
ACTIVITY STAFFING SELECTION (FOR UPDATING)                             X10030000
PROJECT ID                                                             X10040000
SELECT AN ENTRY FROM FOLLOWING LIST BY SPECIFYING THE LINE NUMBER      X10050000
SELECT AN ENTRY FROM FOLLOWING LIST BY SPECIFYING THE LINE NUMBER      X10060000
PFK: 02=RESEND 03=END 08=NEXT                                          X10070000
13                                                                      10080000
 P U AS PN S                                                           X10090000
ACTIVITY STAFFING SELECTION (FOR UPDATING)                             X10100000
PROJECT NAME                                                           X10110000
SELECT AN ENTRY FROM FOLLOWING LIST BY SPECIFYING THE LINE NUMBER      X10120000
SELECT AN ENTRY FROM FOLLOWING LIST BY SPECIFYING THE LINE NUMBER      X10130000
PFK: 02=RESEND 03=END 08=NEXT                                          X10140000
13                                                                      10150000
 P U AS RI S                                                           X10160000
ACTIVITY STAFFING SELECTION (FOR UPDATING)                             X10170000
RESPONSIBLE ID                                                         X10180000
SELECT AN ENTRY FROM FOLLOWING LIST BY SPECIFYING THE LINE NUMBER      X10190000
SELECT AN ENTRY FROM FOLLOWING LIST BY SPECIFYING THE LINE NUMBER      X10200000
PFK: 02=RESEND 03=END 08=NEXT                                          X10210000
13                                                                      10220000
 P U AS RN S                                                           X10230000
ACTIVITY STAFFING SELECTION (FOR UPDATING)                             X10240000
RESPONSIBLE NAME                                                       X10250000
SELECT AN ENTRY FROM FOLLOWING LIST BY SPECIFYING THE LINE NUMBER      X10260000
SELECT AN ENTRY FROM FOLLOWING LIST BY SPECIFYING THE LINE NUMBER      X10270000
PFK: 02=RESEND 03=END 08=NEXT                                          X10280000
13                                                                      10290000
 P U AS PI D                                                           X10300000
UPDATING OF AN ACTIVITY STAFFING                                       X10310000
                                                                       X10320000
ENTER MODIFIED VALUES BELOW                                            X10330000
ENTER MODIFIED VALUES BELOW                                            X10340000
PFK: 02=RESEND 03=END                                                  X10350000
07                                                                      10360000
 P E AS EI S                                                           X10370000
ACTIVITY STAFFING SELECTION (FOR ERASING)                              X10380000
EMPLOYEE ID                                                            X10390000
SELECT AN ENTRY FROM FOLLOWING LIST BY SPECIFYING THE LINE NUMBER      X10400000
SELECT AN ENTRY FROM FOLLOWING LIST BY SPECIFYING THE LINE NUMBER      X10410000
PFK: 02=RESEND 03=END 08=NEXT                                          X10420000
13                                                                      10430000
 P E AS EN S                                                           X10440000
ACTIVITY STAFFING SELECTION (FOR ERASING)                              X10450000
EMPLOYEE NAME                                                          X10460000
SELECT AN ENTRY FROM FOLLOWING LIST BY SPECIFYING THE LINE NUMBER      X10470000
SELECT AN ENTRY FROM FOLLOWING LIST BY SPECIFYING THE LINE NUMBER      X10480000
PFK: 02=RESEND 03=END 08=NEXT                                          X10490000
13                                                                      10500000
 P E AS PI S                                                           X10510000
ACTIVITY STAFFING SELECTION (FOR DISPLAYING)                           X10520000
PROJECT ID                                                             X10530000
SELECT AN ENTRY FROM FOLLOWING LIST BY SPECIFYING THE LINE NUMBER      X10540000
SELECT AN ENTRY FROM FOLLOWING LIST BY SPECIFYING THE LINE NUMBER      X10550000
PFK: 02=RESEND 03=END 08=NEXT                                          X10560000
13                                                                      10570000
 P E AS PN S                                                           X10580000
ACTIVITY STAFFING SELECTION (FOR ERASING)                              X10590000
PROJECT NAME                                                           X10600000
SELECT AN ENTRY FROM FOLLOWING LIST BY SPECIFYING THE LINE NUMBER      X10610000
SELECT AN ENTRY FROM FOLLOWING LIST BY SPECIFYING THE LINE NUMBER      X10620000
PFK: 02=RESEND 03=END 08=NEXT                                          X10630000
13                                                                      10640000
 P E AS RI S                                                           X10650000
ACTIVITY STAFFING SELECTION (FOR ERASING)                              X10660000
RESPONSIBLE ID                                                         X10670000
SELECT AN ENTRY FROM FOLLOWING LIST BY SPECIFYING THE LINE NUMBER      X10680000
SELECT AN ENTRY FROM FOLLOWING LIST BY SPECIFYING THE LINE NUMBER      X10690000
PFK: 02=RESEND 03=END 08=NEXT                                          X10700000
13                                                                      10710000
 P E AS RN S                                                           X10720000
ACTIVITY STAFFING SELECTION (FOR ERASING)                              X10730000
RESPONSIBLE NAME                                                       X10740000
SELECT AN ENTRY FROM FOLLOWING LIST BY SPECIFYING THE LINE NUMBER      X10750000
SELECT AN ENTRY FROM FOLLOWING LIST BY SPECIFYING THE LINE NUMBER      X10760000
PFK: 02=RESEND 03=END 08=NEXT                                          X10770000
13                                                                      10780000
 P E AS PI D                                                           X10790000
ERASING OF AN ACTIVITY STAFFING                                        X10800000
                                                                       X10810000
HIT ENTER TO ERASE THE ACTIVITY STAFFING                               X10820000
                                                                       X10830000
PFK: 02=RESEND 03=END                                                  X10840000
07                                                                      10850000
 O A DE DI                                                             X10860000
                                                                       X10870000
DEPARTMENT ID                                                          X10880000
                                                                       X10890000
                                                                       X10900000
                                                                       X10910000
                                                                        10920000
 O A EM EI                                                             X10930000
                                                                       X10940000
EMPLOYEE ID                                                            X10950000
                                                                       X10960000
                                                                       X10970000
                                                                       X10980000
                                                                        10990000
 P A AE PI                                                             X11000000
                                                                       X11010000
PROJECT ID                                                             X11020000
                                                                       X11030000
                                                                       X11040000
                                                                       X11050000
                                                                        11060000
 P A AS PI                                                             X11070000
                                                                       X11080000
PROJECT ID                                                             X11090000
                                                                       X11100000
                                                                       X11110000
                                                                       X11120000
                                                                        11130000
 P A PR PI                                                             X11140000
                                                                       X11150000
PROJECT ID                                                             X11160000
                                                                       X11170000
                                                                       X11180000
                                                                       X11190000
                                                                        11200000
