//ZZACQUIE JOB  CLASS=A,MSGCLASS=X,REGION=0M,USER=ZZACDB2Z
//* ------------------------------------------------------------------
//*  ZZAC : QUIESCE DB ZZACD11A / ZZACD11P / ZZACD11X / ZZACD11U
//*  ZZAC : USER=ZZACDB2Z OBLIGATOIRE DANS LA CARTE JOB
//* ------------------------------------------------------------------
//*%OPC SCAN
//*%OPC FETCH MEMBER=TWCZTVAR
//*
//ZZACQUIE EXEC DSNUPROC,LIB='DB2.SDSNLOAD',
//  SYSTEM=DB2Z,UID='ZZACQUIESCE',UTPROC=''
//*
//DSNUPROC.SYSIN    DD  *
  LISTDEF   ZZACLISTDEF INCLUDE TABLESPACE ZZACD11A.*
                        INCLUDE TABLESPACE ZZACD11P.*
                        INCLUDE TABLESPACE ZZACD11X.*
                        INCLUDE TABLESPACE ZZACD11U.*
  QUIESCE LIST ZZACLISTDEF
//*
