//ZZACCSD  JOB  CLASS=A,MSGCLASS=X,REGION=0M,NOTIFY=&SYSUID
//* ------------------------------------------------------------------
//*  ZZAC : DEFINITIONS CDS CICS ZZAC
//*  ZZAC : L'ARRET DU CICS CICSZZAC N'EST PAS NECESSAIRE
//*  ZZAC : POUR FAIRE LA MISE A JOUR BATCH DU CSD
//* ------------------------------------------------------------------
//ZZACCSD  EXEC PGM=DFHCSDUP
//STEPLIB  DD DSN=CICS.CICS.SDFHLOAD,DISP=SHR
//DFHCSD   DD DSN=CICSZZOS.ZZAC.DFHCSD,DISP=SHR
//SYSUT1   DD UNIT=SYSDA,SPACE=(1024,(100,100))
//SYSPRINT DD SYSOUT=*
//SYSIN    DD *
*
*        ZZAC DB2 TRANSACTIONS
*
   DEFINE TRANSACTION(ZZCS) GROUP(ZZACAOR) PROGRAM(ZZACCC0)
*
*        ZZAC DB2 MAPSETS
*
   DEFINE MAPSET(ZZACCCD) GROUP(ZZACAOR)
   DEFINE MAPSET(ZZACCCG) GROUP(ZZACAOR)
*
*        ZZAC DB2 DEFINITIONS
*
   DEFINE DB2ENTRY(ZZCSENT) GROUP(ZZACAOR) PLAN(ZZACPLAN)
   DEFINE DB2TRAN(ZZCSTRAN) GROUP(ZZACAOR) ENTRY(ZZCSENT)
          TRANSID(ZZCS)
//*
