//ZZACEJ1  JOB  CLASS=A,MSGCLASS=X,REGION=0M,LINES=99999,USER=ZZACDB2Z
//* ------------------------------------------------------------------
//*  ZZAC : Creating and loading zzac tables
//*  ZZAC : USER=ZZACDB2Z obligatoire dans la carte Job
//* ------------------------------------------------------------------
//JOBLIB  DD  DISP=SHR,DSN=DB2Z.SDSNEXIT
//*
//*        STEP  1: CREATE ZZAC TABLESPACES
//*
//PH01S01 EXEC PGM=IKJEFT01,DYNAMNBR=20,COND=(4,LT)
//SYSTSPRT DD SYSOUT=*
//SYSTSIN  DD *
  DSN SYSTEM(DB2Z)
  RUN  PROGRAM(DSNTIAD) PLAN(DSNTIAD) -
       LIB('DB2Z.RUNLIB.LOAD')
//SYSPRINT DD SYSOUT=*
//SYSUDUMP DD SYSOUT=*
//SYSIN    DD *

  CREATE TABLESPACE ZZACS11D
    IN ZZACD11A
    USING STOGROUP ZZACG110
    ERASE NO
    LOCKSIZE PAGE LOCKMAX SYSTEM
    BUFFERPOOL BP1
    CLOSE NO
    CCSID EBCDIC;

  COMMIT ;

  CREATE TABLESPACE ZZACS11E
    IN ZZACD11A
    USING STOGROUP ZZACG110
    ERASE NO
    NUMPARTS 4
       (PART 1 USING STOGROUP ZZACG110
       ,PART 3 USING STOGROUP ZZACG110
       )
    SEGSIZE 0
    LOCKSIZE PAGE LOCKMAX SYSTEM
    BUFFERPOOL BP1
    CLOSE NO
    COMPRESS YES
    CCSID EBCDIC;

  COMMIT ;

  CREATE TABLESPACE ZZACS11C
    IN ZZACD11P
    USING STOGROUP ZZACG110
    SEGSIZE 4
    LOCKSIZE TABLE
    BUFFERPOOL BP1
    CLOSE NO
    CCSID EBCDIC;

  COMMIT ;

  CREATE TABLESPACE ZZACS11Q
    IN ZZACD11P
    USING STOGROUP ZZACG110
    SEGSIZE 4
    LOCKSIZE PAGE
    BUFFERPOOL BP1
    CLOSE NO
    CCSID EBCDIC;

  COMMIT ;

  CREATE TABLESPACE ZZACS11R
    IN ZZACD11A
    USING STOGROUP ZZACG110
    ERASE NO
    LOCKSIZE PAGE LOCKMAX SYSTEM
    BUFFERPOOL BP1
    CLOSE NO
    CCSID EBCDIC;

  CREATE TABLESPACE ZZACS11P
    IN ZZACD11A
    USING STOGROUP ZZACG110
    SEGSIZE 4
    LOCKSIZE ROW
    BUFFERPOOL BP1
    CLOSE NO
    CCSID EBCDIC;

  COMMIT ;

  CREATE TABLESPACE ZZACS11S
    IN ZZACD11A
    USING STOGROUP ZZACG110
    ERASE NO
    LOCKSIZE PAGE LOCKMAX SYSTEM
    BUFFERPOOL BP1
    CLOSE NO
    CCSID EBCDIC;

  CREATE TABLESPACE ZZACS11X
    IN ZZACD11X
    USING STOGROUP ZZACG110
    ERASE NO
    LOCKSIZE PAGE LOCKMAX SYSTEM
    BUFFERPOOL BP1
    CLOSE NO
    CCSID EBCDIC;

  COMMIT;

//*
//*        STEP  2: CREATE ZZAC TABLES, VIEWS
//*
//PH01S02 EXEC PGM=IKJEFT01,DYNAMNBR=20,COND=(4,LT)
//SYSTSPRT DD  SYSOUT=*
//SYSTSIN  DD  *
  DSN SYSTEM(DB2Z)
  RUN  PROGRAM(DSNTIAD) PLAN(DSNTIAD) -
       LIB('DB2Z.RUNLIB.LOAD')
//SYSPRINT DD  SYSOUT=*
//SYSUDUMP DD  SYSOUT=*
//SYSIN    DD  *

  CREATE TABLE ZZACDB2Z.DEPT
                (DEPTNO   CHAR(3)        NOT NULL,
                 DEPTNAME VARCHAR(36)    NOT NULL,
                 MGRNO    CHAR(6)                ,
                 ADMRDEPT CHAR(3)        NOT NULL,
                 LOCATION CHAR(16)               ,
                 PRIMARY KEY(DEPTNO))
         IN ZZACD11A.ZZACS11D
         CCSID EBCDIC;

  CREATE UNIQUE INDEX ZZACDB2Z.XDEPT1
                   ON ZZACDB2Z.DEPT
                       (DEPTNO   ASC)
                   USING STOGROUP ZZACG110
                   ERASE NO
                   BUFFERPOOL BP2
                   CLOSE NO;

  CREATE INDEX ZZACDB2Z.XDEPT2
                   ON ZZACDB2Z.DEPT
                       (MGRNO   ASC)
                   USING STOGROUP ZZACG110
                   ERASE NO
                   BUFFERPOOL BP2
                   CLOSE NO;

  CREATE INDEX ZZACDB2Z.XDEPT3
                   ON ZZACDB2Z.DEPT
                       (ADMRDEPT ASC)
                   USING STOGROUP ZZACG110
                   ERASE NO
                   BUFFERPOOL BP2
                   CLOSE NO;

  CREATE VIEW ZZACDB2Z.VDEPT
     AS SELECT ALL      DEPTNO  ,
                        DEPTNAME,
                        MGRNO   ,
                        ADMRDEPT
     FROM ZZACDB2Z.DEPT;

  CREATE VIEW ZZACDB2Z.VHDEPT
     AS SELECT ALL      DEPTNO  ,
                        DEPTNAME,
                        MGRNO   ,
                        ADMRDEPT,
                        LOCATION
     FROM ZZACDB2Z.DEPT;

  COMMIT ;

  CREATE TABLE ZZACDB2Z.EMP
                (EMPNO     CHAR(6)        NOT NULL,
                 FIRSTNME  VARCHAR(12)    NOT NULL,
                 MIDINIT   CHAR(1)        NOT NULL,
                 LASTNAME  VARCHAR(15)    NOT NULL,
                 WORKDEPT  CHAR(3)                ,
                 PHONENO   CHAR(4) CONSTRAINT NUMBER CHECK
                  (PHONENO >= '0000' AND PHONENO <= '9999'),
                 HIREDATE  DATE                   ,
                 JOB       CHAR(8)                ,
                 EDLEVEL   SMALLINT               ,
                 SEX       CHAR(1)                ,
                 BIRTHDATE DATE                   ,
                 SALARY    DECIMAL(9, 2)          ,
                 BONUS     DECIMAL(9, 2)          ,
                 COMM      DECIMAL(9, 2)          ,
                 PRIMARY KEY(EMPNO),
                 FOREIGN KEY RED (WORKDEPT) REFERENCES ZZACDB2Z.DEPT
                   ON DELETE SET NULL)
         PARTITION BY RANGE (EMPNO)
                (PARTITION 1 ENDING AT('099999'),
                 PARTITION 2 ENDING AT('199999'),
                 PARTITION 3 ENDING AT('299999'),
                 PARTITION 4 ENDING AT('999999'))
         EDITPROC  ZZACEAE1
         IN ZZACD11A.ZZACS11E
         CCSID EBCDIC;

  CREATE UNIQUE INDEX ZZACDB2Z.XEMP1
                   ON ZZACDB2Z.EMP
                       (EMPNO    ASC)
                   USING STOGROUP ZZACG110
                   ERASE NO
                   BUFFERPOOL BP2
                   CLOSE NO;

  CREATE INDEX ZZACDB2Z.XEMP2
                   ON ZZACDB2Z.EMP
                       (WORKDEPT ASC)
                   USING STOGROUP ZZACG110
                   ERASE NO
                   BUFFERPOOL BP2
                   CLOSE NO;

  CREATE VIEW ZZACDB2Z.VEMP
     AS SELECT ALL      EMPNO   ,
                        FIRSTNME,
                        MIDINIT ,
                        LASTNAME,
                        WORKDEPT
     FROM ZZACDB2Z.EMP;

  COMMIT ;

  CREATE TABLE ZZACDB2Z.PROJ
                (PROJNO   CHAR(6) PRIMARY KEY NOT NULL,
                 PROJNAME VARCHAR(24)    NOT NULL WITH DEFAULT
                   'PROJECT NAME UNDEFINED',
                 DEPTNO   CHAR(3)        NOT NULL REFERENCES
                   ZZACDB2Z.DEPT ON DELETE RESTRICT,
                 RESPEMP  CHAR(6)        NOT NULL REFERENCES
                   ZZACDB2Z.EMP ON DELETE RESTRICT,
                 PRSTAFF  DECIMAL(5, 2)          ,
                 PRSTDATE DATE                   ,
                 PRENDATE DATE                   ,
                 MAJPROJ  CHAR(6))
         IN ZZACD11A.ZZACS11P
         CCSID EBCDIC;

  ALTER  TABLESPACE ZZACD11A.ZZACS11P   CLOSE NO;

  ALTER  TABLESPACE ZZACD11A.ZZACS11E
         PART 3 COMPRESS NO;

  CREATE UNIQUE INDEX ZZACDB2Z.XPROJ1
                   ON ZZACDB2Z.PROJ
                       (PROJNO   ASC)
                   USING STOGROUP ZZACG110
                   ERASE NO
                   BUFFERPOOL BP2
                   CLOSE NO;

  CREATE INDEX ZZACDB2Z.XPROJ2
                   ON ZZACDB2Z.PROJ
                       (RESPEMP  ASC)
                   USING STOGROUP ZZACG110
                   ERASE NO
                   BUFFERPOOL BP2
                   CLOSE NO;

  CREATE VIEW ZZACDB2Z.VPROJ
     AS SELECT ALL
               PROJNO, PROJNAME, DEPTNO, RESPEMP, PRSTAFF,
               PRSTDATE, PRENDATE, MAJPROJ
     FROM ZZACDB2Z.PROJ ;

  COMMIT ;

  CREATE TABLE ZZACDB2Z.ACT
                (ACTNO    SMALLINT       NOT NULL,
                 ACTKWD   CHAR(6)        NOT NULL,
                 ACTDESC  VARCHAR(20)    NOT NULL,
                 PRIMARY KEY(ACTNO))
         IN ZZACD11A.ZZACS11P
         CCSID EBCDIC;

  ALTER  TABLESPACE ZZACD11A.ZZACS11P   CLOSE NO;

  CREATE UNIQUE INDEX ZZACDB2Z.XACT1
                   ON ZZACDB2Z.ACT
                       (ACTNO    ASC)
                   USING STOGROUP ZZACG110
                   ERASE NO
                   BUFFERPOOL BP2
                   CLOSE NO;

  CREATE UNIQUE INDEX ZZACDB2Z.XACT2
                   ON ZZACDB2Z.ACT
                       (ACTKWD   ASC)
                   USING STOGROUP ZZACG110
                   ERASE NO
                   BUFFERPOOL BP2
                   CLOSE NO;

  CREATE VIEW ZZACDB2Z.VACT
        AS SELECT ALL      ACTNO   ,
                        ACTKWD  ,
                        ACTDESC
             FROM ZZACDB2Z.ACT ;

  COMMIT ;

  CREATE TABLE ZZACDB2Z.PROJACT
                (PROJNO   CHAR(6)        NOT NULL,
                 ACTNO    SMALLINT       NOT NULL,
                 ACSTAFF  DECIMAL(5, 2)          ,
                 ACSTDATE DATE           NOT NULL,
                 ACENDATE DATE                   ,
                 PRIMARY KEY(PROJNO,ACTNO,ACSTDATE),
                 FOREIGN KEY RPAP (PROJNO) REFERENCES ZZACDB2Z.PROJ
                   ON DELETE RESTRICT,
                 FOREIGN KEY RPAA (ACTNO) REFERENCES ZZACDB2Z.ACT
                   ON DELETE RESTRICT)
         IN ZZACD11A.ZZACS11P
         CCSID EBCDIC;

  ALTER  TABLESPACE ZZACD11A.ZZACS11P   CLOSE NO;

  CREATE UNIQUE INDEX ZZACDB2Z.XPROJAC1
                   ON ZZACDB2Z.PROJACT
                       (PROJNO   ASC,
                        ACTNO    ASC,
                        ACSTDATE ASC)
                   USING STOGROUP ZZACG110
                   ERASE NO
                   BUFFERPOOL BP2
                   CLOSE NO;

  CREATE VIEW ZZACDB2Z.VPROJACT
        AS SELECT ALL
              PROJNO,ACTNO, ACSTAFF, ACSTDATE, ACENDATE
              FROM ZZACDB2Z.PROJACT ;

  COMMIT ;

  CREATE TABLE ZZACDB2Z.EMPPROJACT
                (EMPNO    CHAR(6)        NOT NULL,
                 PROJNO   CHAR(6)        NOT NULL,
                 ACTNO    SMALLINT       NOT NULL,
                 EMPTIME  DECIMAL(5, 2)          ,
                 EMSTDATE DATE                   ,
                 EMENDATE DATE                   ,
                 FOREIGN KEY REPAPA (PROJNO, ACTNO, EMSTDATE)
                   REFERENCES ZZACDB2Z.PROJACT
                   ON DELETE RESTRICT,
                 FOREIGN KEY REPAE (EMPNO) REFERENCES ZZACDB2Z.EMP
                   ON DELETE RESTRICT)
         IN ZZACD11A.ZZACS11P
         CCSID EBCDIC;

  ALTER  TABLESPACE ZZACD11A.ZZACS11P   CLOSE NO;

  CREATE UNIQUE INDEX ZZACDB2Z.XEMPPROJACT1
                   ON ZZACDB2Z.EMPPROJACT
                       (PROJNO   ASC,
                        ACTNO    ASC,
                        EMSTDATE ASC,
                        EMPNO    ASC)
                   USING STOGROUP ZZACG110
                   ERASE NO
                   BUFFERPOOL BP2
                   CLOSE NO;

  CREATE INDEX ZZACDB2Z.XEMPPROJACT2
                   ON ZZACDB2Z.EMPPROJACT
                       (EMPNO    ASC)
                   USING STOGROUP ZZACG110
                   ERASE NO
                   BUFFERPOOL BP2
                   CLOSE NO;

  CREATE VIEW ZZACDB2Z.VEMPPROJACT
        AS SELECT ALL
            EMPNO, PROJNO, ACTNO, EMPTIME, EMSTDATE, EMENDATE
            FROM ZZACDB2Z.EMPPROJACT ;

  COMMIT ;

  CREATE TABLE ZZACDB2Z.PARTS
                (ITEMNUM   CHAR(6)        NOT NULL,
                 DESCRIPT  VARCHAR(30)    NOT NULL,
                 COLOR     VARCHAR(8)             ,
                 SUPPLIER  VARCHAR(15)    NOT NULL)
         IN ZZACD11A.ZZACS11S
         CCSID EBCDIC;

  CREATE INDEX ZZACDB2Z.XPARTS
                   ON ZZACDB2Z.PARTS
                       (ITEMNUM  ASC)
                   USING STOGROUP ZZACG110
                   ERASE NO
                   BUFFERPOOL BP2
                   CLOSE NO;

  COMMIT ;

  CREATE TABLE ZZACDB2Z.TCONA
                (CONVID   CHAR(16)       NOT NULL,
                 LASTSCR  CHAR(8)        NOT NULL,
                 LASTPOS  CHAR(254)      NOT NULL,
                 LASTPOSC CHAR(254)      NOT NULL,
                 LASTMSG  VARCHAR(1609)  NOT NULL)
         IN ZZACD11P.ZZACS11C
         CCSID EBCDIC;

  CREATE UNIQUE INDEX ZZACDB2Z.XCONA1
                   ON ZZACDB2Z.TCONA
                       (CONVID   ASC)
                   USING STOGROUP ZZACG110
                   ERASE NO
                   BUFFERPOOL BP2
                   CLOSE NO;

  CREATE VIEW ZZACDB2Z.VCONA
     AS SELECT ALL
                 CONVID, LASTSCR, LASTPOS, LASTPOSC, LASTMSG
     FROM ZZACDB2Z.TCONA ;

  COMMIT ;

  CREATE TABLE ZZACDB2Z.TOPTVAL
                (MAJSYS   CHAR(1)        NOT NULL,
                 ACTION   CHAR(1)        NOT NULL,
                 OBJFLD   CHAR(2)        NOT NULL,
                 SRCHCRIT CHAR(2)        NOT NULL,
                 SCRTYPE  CHAR(1)        NOT NULL,
                 HEADTXT  CHAR(50)       NOT NULL,
                 SELTXT   CHAR(50)       NOT NULL,
                 INFOTXT  CHAR(79)       NOT NULL,
                 HELPTXT  CHAR(79)       NOT NULL,
                 PFKTXT   CHAR(79)       NOT NULL,
                 DSPINDEX CHAR(2)        NOT NULL)
         IN ZZACD11P.ZZACS11C
         CCSID EBCDIC;

  CREATE UNIQUE INDEX ZZACDB2Z.XOPTVAL1
                   ON ZZACDB2Z.TOPTVAL
                       (MAJSYS   ASC,
                        ACTION   ASC,
                        OBJFLD   ASC,
                        SRCHCRIT ASC,
                        SCRTYPE  ASC)
                   USING STOGROUP ZZACG110
                   ERASE NO
                   BUFFERPOOL BP2
                   CLOSE NO;

  CREATE VIEW ZZACDB2Z.VOPTVAL
     AS SELECT ALL
          MAJSYS, ACTION, OBJFLD, SRCHCRIT, SCRTYPE, HEADTXT,
          SELTXT, INFOTXT, HELPTXT, PFKTXT, DSPINDEX
     FROM ZZACDB2Z.TOPTVAL ;

  COMMIT ;

  CREATE TABLE ZZACDB2Z.TDSPTXT
                (DSPINDEX CHAR(2)        NOT NULL,
                 LINENO   CHAR(2)        NOT NULL,
                 DSPLINE  CHAR(79)       NOT NULL)
         IN ZZACD11P.ZZACS11C
         CCSID EBCDIC;

  CREATE UNIQUE INDEX ZZACDB2Z.XDSPTXT1
                   ON ZZACDB2Z.TDSPTXT
                       (DSPINDEX ASC,
                        LINENO   ASC)
                   USING STOGROUP ZZACG110
                   ERASE NO
                   BUFFERPOOL BP2
                   CLOSE NO;

  CREATE VIEW ZZACDB2Z.VDSPTXT
     AS SELECT ALL
                 DSPINDEX, LINENO, DSPLINE
     FROM ZZACDB2Z.TDSPTXT ;

  COMMIT;

  ALTER TABLE ZZACDB2Z.DEPT
     FOREIGN KEY RDD (ADMRDEPT) REFERENCES ZZACDB2Z.DEPT
       ON DELETE CASCADE;
  ALTER TABLE ZZACDB2Z.DEPT
     FOREIGN KEY RDE (MGRNO) REFERENCES ZZACDB2Z.EMP
       ON DELETE SET NULL;
  ALTER TABLE ZZACDB2Z.PROJ
     FOREIGN KEY RPP (MAJPROJ) REFERENCES ZZACDB2Z.PROJ
       ON DELETE CASCADE;

  COMMIT;

  CREATE TABLE ZZACDB2Z.EDEPT    LIKE ZZACDB2Z.DEPT
         IN ZZACD11A.ZZACS11R ;
  CREATE TABLE ZZACDB2Z.EEMP     LIKE ZZACDB2Z.EMP
         IN ZZACD11A.ZZACS11R ;
  CREATE TABLE ZZACDB2Z.EPROJ    LIKE ZZACDB2Z.PROJ
         IN ZZACD11A.ZZACS11R ;
  CREATE TABLE ZZACDB2Z.EACT     LIKE ZZACDB2Z.ACT
         IN ZZACD11A.ZZACS11R ;
  CREATE TABLE ZZACDB2Z.EPROJACT LIKE ZZACDB2Z.PROJACT
         IN ZZACD11A.ZZACS11R ;
  CREATE TABLE ZZACDB2Z.EEPA     LIKE ZZACDB2Z.EMPPROJACT
         IN ZZACD11A.ZZACS11R ;

  COMMIT;

  ALTER TABLE ZZACDB2Z.EDEPT
        ADD RID      CHAR(4);
  ALTER TABLE ZZACDB2Z.EDEPT
        ADD TSTAMP   TIMESTAMP;
  ALTER TABLE ZZACDB2Z.EEMP
        ADD RID      CHAR(4);
  ALTER TABLE ZZACDB2Z.EEMP
        ADD TSTAMP   TIMESTAMP;
  ALTER TABLE ZZACDB2Z.EPROJ
        ADD RID      CHAR(4);
  ALTER TABLE ZZACDB2Z.EPROJ
        ADD TSTAMP   TIMESTAMP;
  ALTER TABLE ZZACDB2Z.EACT
        ADD RID      CHAR(4);
  ALTER TABLE ZZACDB2Z.EACT
        ADD TSTAMP   TIMESTAMP;
  ALTER TABLE ZZACDB2Z.EPROJACT
        ADD RID      CHAR(4);
  ALTER TABLE ZZACDB2Z.EPROJACT
        ADD TSTAMP   TIMESTAMP;
  ALTER TABLE ZZACDB2Z.EEPA
        ADD RID      CHAR(4);
  ALTER TABLE ZZACDB2Z.EEPA
        ADD TSTAMP   TIMESTAMP;

  COMMIT;

  CREATE SEQUENCE ZZACDB2Z.POID
    AS BIGINT
    START WITH 1000
    INCREMENT BY 1;

  CREATE SEQUENCE ZZACDB2Z.CID
    AS BIGINT
    START WITH 1000
    INCREMENT BY 1;

  CREATE TABLE ZZACDB2Z.PRODUCT
    ( PID              VARCHAR(10)   NOT NULL PRIMARY KEY
     ,NAME             VARCHAR(128)
     ,PRICE            DECIMAL(30, 2)
     ,PROMOPRICE       DECIMAL(30, 2)
     ,PROMOSTART       DATE
     ,PROMOEND         DATE
     ,DESCRIPTION      XML )
    IN ZZACD11X.ZZACS11X
    CCSID EBCDIC;

  CREATE UNIQUE INDEX ZZACDB2Z.PROD_NAME_PIDX
    ON ZZACDB2Z.PRODUCT(PID)
    USING STOGROUP ZZACG110;

  CREATE INDEX ZZACDB2Z.PROD_NAME_XMLIDX
    ON ZZACDB2Z.PRODUCT(DESCRIPTION)
    GENERATE KEY USING XMLPATTERN '/product/description/name'
      AS SQL VARCHAR(128)
    USING STOGROUP ZZACG110;

  CREATE INDEX ZZACDB2Z.PROD_DETAIL_XMLIDX
    ON ZZACDB2Z.PRODUCT(DESCRIPTION)
    GENERATE KEY USING XMLPATTERN '/product/description/detail'
      AS SQL VARCHAR(128)
    USING STOGROUP ZZACG110;

  CREATE TABLE ZZACDB2Z.INVENTORY
    ( PID              VARCHAR(10)  NOT NULL PRIMARY KEY,
      QUANTITY         INTEGER,
      LOCATION         VARCHAR(128) )
    IN ZZACD11X.ZZACS11X
    CCSID EBCDIC;

  CREATE UNIQUE INDEX ZZACDB2Z.INVENTORY_PIDX
    ON ZZACDB2Z.INVENTORY(PID)
    USING STOGROUP ZZACG110;

  CREATE TABLE ZZACDB2Z.CUSTOMER
    ( CID              BIGINT       NOT NULL PRIMARY KEY,
      INFO             XML,
      HISTORY          XML )
    IN ZZACD11X.ZZACS11X
    CCSID EBCDIC;

  CREATE UNIQUE INDEX ZZACDB2Z.CUSTOMER_CIDX
    ON ZZACDB2Z.CUSTOMER(CID)
    USING STOGROUP ZZACG110;

  CREATE TABLE ZZACDB2Z.PURCHASEORDER
    ( POID             BIGINT       NOT NULL PRIMARY KEY,
      STATUS           VARCHAR(10)  NOT NULL WITH DEFAULT 'New',
      PORDER           XML )
    IN ZZACD11X.ZZACS11X
    CCSID EBCDIC;

  CREATE UNIQUE INDEX ZZACDB2Z.PURCHASEORDER_POIDX
    ON ZZACDB2Z.PURCHASEORDER(POID)
    USING STOGROUP ZZACG110;

  CREATE TABLE ZZACDB2Z.CATALOG
    ( NAME             VARCHAR(128) NOT NULL PRIMARY KEY,
      CATLOG           XML )
    IN ZZACD11X.ZZACS11X
    CCSID EBCDIC;

  CREATE UNIQUE INDEX ZZACDB2Z.CATALOG_NAMEX
    ON ZZACDB2Z.CATALOG(NAME)
    USING STOGROUP ZZACG110;

  CREATE TABLE ZZACDB2Z.SUPPLIERS
    ( SID              VARCHAR(10) NOT NULL PRIMARY KEY,
      ADDR             XML )
    IN ZZACD11X.ZZACS11X
    CCSID EBCDIC;

  CREATE UNIQUE INDEX ZZACDB2Z.SUPPLIERS_SIDX
    ON ZZACDB2Z.SUPPLIERS(SID)
    USING STOGROUP ZZACG110;

  CREATE TABLE ZZACDB2Z.PRODUCTSUPPLIER
    ( PID              VARCHAR(10) NOT NULL,
      SID              VARCHAR(10) NOT NULL,
      PRIMARY KEY(PID,SID) )
    IN ZZACD11X.ZZACS11X
    CCSID EBCDIC;

  CREATE UNIQUE INDEX ZZACDB2Z.PRODUCTSUPPLIER_PID_SIDX
    ON ZZACDB2Z.PRODUCTSUPPLIER(PID,SID)
    USING STOGROUP ZZACG110;

//*
//*        STEP  3: CREATE ZZAC MAPPING TABLE FOR ONLINE REORG
//*
//*********************************************************************
//*   THE FOLLOWING IS AN EXAMPLE DEFINITION OF THE MAPPING TABLE     *
//*   THAT IS REQUIRED TO RUN AN ONLINE REORGANIZATION WITH SHRLEVEL  *
//*   CHANGE.                                                         *
//*                                                                   *
//*   A MAPPING TABLE MUST BE CREATED IN A SEGMENTED TABLE SPACE.     *
//*   THAT TABLESPACE SHOULD CONTAIN ONLY MAPPING TABLES.  IT MUST    *
//*   NOT BE THE TABLE SPACE THAT IS TO BE REORGANIZED.               *
//*                                                                   *
//*   IF YOU WANT CONCURRENT EXECUTIONS OF REORG (ON SEVERAL TABLE    *
//*   SPACES AND/OR ON SEVERAL PARTITIONS OF A TABLE SPACE) THE       *
//*   EXECUTIONS SHOULD USE DIFFERENT MAPPING TABLES.                 *
//*********************************************************************
//PH01S03 EXEC PGM=IKJEFT01,DYNAMNBR=20,COND=(4,LT)
//SYSTSPRT DD SYSOUT=*
//SYSTSIN  DD *
  DSN SYSTEM(DB2Z)
  RUN  PROGRAM(DSNTIAD) PLAN(DSNTIAD) -
       LIB('DB2Z.RUNLIB.LOAD')
//SYSPRINT DD SYSOUT=*
//SYSUDUMP DD SYSOUT=*
//SYSIN    DD *

  CREATE TABLE ZZACDB2Z.MAP_TBL
        (TYPE         CHAR( 01 ) NOT NULL,
         SOURCE_RID   CHAR( 05 ) NOT NULL,
         TARGET_XRID  CHAR( 09 ) NOT NULL,
         LRSN         CHAR( 06 ) NOT NULL)
     IN ZZACD11P.ZZACS11Q
     CCSID EBCDIC;

  CREATE UNIQUE INDEX ZZACDB2Z.XMAP_TBL
     ON ZZACDB2Z.MAP_TBL
        (SOURCE_RID ASC,
         TYPE,
         TARGET_XRID,
         LRSN)
     USING STOGROUP ZZACG110
     ERASE NO
     BUFFERPOOL BP2
     CLOSE NO;
//*
//*        STEP  4: CREATE ZZAC VIEWS
//*
//PH01S04 EXEC PGM=IKJEFT01,DYNAMNBR=20,COND=(4,LT)
//SYSTSPRT DD  SYSOUT=*
//SYSTSIN  DD  *
  DSN SYSTEM(DB2Z)
  RUN  PROGRAM(DSNTIAD) PLAN(DSNTIAD) -
       LIB('DB2Z.RUNLIB.LOAD')
//SYSPRINT DD  SYSOUT=*
//SYSUDUMP DD  SYSOUT=*
//SYSIN    DD  *

  CREATE VIEW ZZACDB2Z.VDEPMG1
        (DEPTNO, DEPTNAME, MGRNO, FIRSTNME, MIDINIT, LASTNAME, ADMRDEPT)
      AS SELECT ALL
         DEPTNO, DEPTNAME, EMPNO, FIRSTNME, MIDINIT, LASTNAME, ADMRDEPT
          FROM ZZACDB2Z.DEPT LEFT OUTER JOIN ZZACDB2Z.EMP
          ON MGRNO = EMPNO ;

  CREATE VIEW ZZACDB2Z.VEMPDPT1
        (DEPTNO, DEPTNAME, EMPNO, FRSTINIT, MIDINIT,
         LASTNAME, WORKDEPT)
      AS SELECT ALL
         DEPTNO, DEPTNAME, EMPNO, SUBSTR(FIRSTNME, 1, 1), MIDINIT,
         LASTNAME, WORKDEPT
          FROM ZZACDB2Z.DEPT RIGHT OUTER JOIN ZZACDB2Z.EMP
          ON WORKDEPT = DEPTNO ;

  CREATE VIEW ZZACDB2Z.VASTRDE1
      (DEPT1NO,DEPT1NAM,EMP1NO,EMP1FN,EMP1MI,EMP1LN,TYPE2,
       DEPT2NO,DEPT2NAM,EMP2NO,EMP2FN,EMP2MI,EMP2LN)
      AS SELECT ALL
          D1.DEPTNO,D1.DEPTNAME,D1.MGRNO,D1.FIRSTNME,D1.MIDINIT,
          D1.LASTNAME, '1',
          D2.DEPTNO,D2.DEPTNAME,D2.MGRNO,D2.FIRSTNME,D2.MIDINIT,
          D2.LASTNAME
          FROM ZZACDB2Z.VDEPMG1 D1, ZZACDB2Z.VDEPMG1 D2
          WHERE D1.DEPTNO = D2.ADMRDEPT ;

  CREATE VIEW ZZACDB2Z.VASTRDE2
      (DEPT1NO,DEPT1NAM,EMP1NO,EMP1FN,EMP1MI,EMP1LN,TYPE2,
       DEPT2NO,DEPT2NAM,EMP2NO,EMP2FN,EMP2MI,EMP2LN)
      AS SELECT ALL
           D1.DEPTNO,D1.DEPTNAME,D1.MGRNO,D1.FIRSTNME,D1.MIDINIT,
           D1.LASTNAME,'2',
           D1.DEPTNO,D1.DEPTNAME,E2.EMPNO,E2.FIRSTNME,E2.MIDINIT,
           E2.LASTNAME
           FROM ZZACDB2Z.VDEPMG1 D1, ZZACDB2Z.EMP E2
           WHERE D1.DEPTNO = E2.WORKDEPT;

  CREATE VIEW ZZACDB2Z.VPROJRE1
    (PROJNO,PROJNAME,PROJDEP,RESPEMP,FIRSTNME,MIDINIT,LASTNAME,MAJPROJ)
     AS SELECT ALL
        PROJNO,PROJNAME,DEPTNO,EMPNO,FIRSTNME,MIDINIT,LASTNAME,MAJPROJ
       FROM ZZACDB2Z.PROJ, ZZACDB2Z.EMP
       WHERE RESPEMP = EMPNO ;

  CREATE VIEW ZZACDB2Z.VPSTRDE1
    (PROJ1NO,PROJ1NAME,RESP1NO,RESP1FN,RESP1MI,RESP1LN,
     PROJ2NO,PROJ2NAME,RESP2NO,RESP2FN,RESP2MI,RESP2LN)
     AS SELECT ALL
          P1.PROJNO,P1.PROJNAME,P1.RESPEMP,P1.FIRSTNME,P1.MIDINIT,
          P1.LASTNAME,
          P2.PROJNO,P2.PROJNAME,P2.RESPEMP,P2.FIRSTNME,P2.MIDINIT,
          P2.LASTNAME
       FROM ZZACDB2Z.VPROJRE1 P1,
         ZZACDB2Z.VPROJRE1 P2
       WHERE P1.PROJNO = P2.MAJPROJ ;

  CREATE VIEW ZZACDB2Z.VPSTRDE2
    (PROJ1NO,PROJ1NAME,RESP1NO,RESP1FN,RESP1MI,RESP1LN,
     PROJ2NO,PROJ2NAME,RESP2NO,RESP2FN,RESP2MI,RESP2LN)
     AS SELECT ALL
          P1.PROJNO,P1.PROJNAME,P1.RESPEMP,P1.FIRSTNME,P1.MIDINIT,
          P1.LASTNAME,
          P1.PROJNO,P1.PROJNAME,P1.RESPEMP,P1.FIRSTNME,P1.MIDINIT,
          P1.LASTNAME
       FROM ZZACDB2Z.VPROJRE1 P1
         WHERE NOT EXISTS
           (SELECT * FROM ZZACDB2Z.VPROJRE1 P2
             WHERE P1.PROJNO = P2.MAJPROJ) ;

  CREATE VIEW ZZACDB2Z.VFORPLA
    (PROJNO,PROJNAME,RESPEMP,PROJDEP,FRSTINIT,MIDINIT,LASTNAME)
     AS SELECT ALL
     F1.PROJNO,PROJNAME,RESPEMP,PROJDEP, SUBSTR(FIRSTNME, 1, 1),
     MIDINIT, LASTNAME
     FROM ZZACDB2Z.VPROJRE1 F1 LEFT OUTER JOIN ZZACDB2Z.EMPPROJACT F2
     ON F1.PROJNO = F2.PROJNO;

  CREATE VIEW ZZACDB2Z.VSTAFAC1
    (PROJNO, ACTNO, ACTDESC, EMPNO, FIRSTNME, MIDINIT, LASTNAME,
     EMPTIME,STDATE,ENDATE, TYPE)
     AS SELECT ALL
           PA.PROJNO, PA.ACTNO, AC.ACTDESC,' ', ' ', ' ', ' ',
           PA.ACSTAFF, PA.ACSTDATE,
           PA.ACENDATE,'1'
       FROM ZZACDB2Z.PROJACT PA, ZZACDB2Z.ACT AC
       WHERE PA.ACTNO = AC.ACTNO ;

  CREATE VIEW ZZACDB2Z.VSTAFAC2
    (PROJNO, ACTNO, ACTDESC, EMPNO, FIRSTNME, MIDINIT, LASTNAME,
     EMPTIME,STDATE, ENDATE, TYPE)
     AS SELECT ALL
           EP.PROJNO, EP.ACTNO, AC.ACTDESC, EP.EMPNO,EM.FIRSTNME,
           EM.MIDINIT, EM.LASTNAME, EP.EMPTIME, EP.EMSTDATE,
           EP.EMENDATE,'2'
       FROM ZZACDB2Z.EMPPROJACT EP, ZZACDB2Z.ACT AC, ZZACDB2Z.EMP EM
       WHERE EP.ACTNO = AC.ACTNO  AND EP.EMPNO = EM.EMPNO ;

  CREATE VIEW ZZACDB2Z.VPHONE
                (LASTNAME,
                 FIRSTNAME,
                 MIDDLEINITIAL,
                 PHONENUMBER,
                 EMPLOYEENUMBER,
                 DEPTNUMBER,
                 DEPTNAME)
     AS SELECT ALL      LASTNAME,
                        FIRSTNME,
                        MIDINIT ,
                        VALUE(PHONENO,'    '),
                        EMPNO,
                        DEPTNO,
                        DEPTNAME
     FROM ZZACDB2Z.EMP, ZZACDB2Z.DEPT
     WHERE WORKDEPT = DEPTNO;

  CREATE VIEW ZZACDB2Z.VEMPLP
                (EMPLOYEENUMBER,
                 PHONENUMBER)
     AS SELECT ALL      EMPNO   ,
                        PHONENO
     FROM ZZACDB2Z.EMP ;
//*
//*        STEP 11: CREATE ZZAC UTILITY LIST
//*
//PH01S11 EXEC PGM=IEBGENER,COND=(4,LT)
//SYSIN    DD  DUMMY
//SYSPRINT DD  SYSOUT=*
//SYSUT1   DD  *

  LISTDEF ZZACLDEF
          INCLUDE TABLESPACES DATABASE ZZACD11A
          EXCLUDE TABLESPACE           ZZACD11A.ZZACS11R
          EXCLUDE TABLESPACE           ZZACD11A.ZZACS11S

//SYSUT2   DD  DSN=ZZACDB2Z.ZZAC.LISTDEF,
//             DISP=(,CATLG,DELETE),
//             SPACE=(TRK,1),
//             DCB=(RECFM=FB,LRECL=80)
//*
//*        STEP 12: LOAD DATA INTO ZZAC PROGRAM TABLES
//*
//PH01S12 EXEC DSNUPROC,PARM='DB2Z,ZZACUTD',COND=(4,LT)
//SORTLIB  DD  DSN=SYS1.SORTLIB,DISP=SHR
//SORTOUT  DD  UNIT=SYSDA,SPACE=(4000,(20,20),,,ROUND)
//DSNTRACE DD  SYSOUT=*
//SYSRECDT DD  DSN=SYS1.ZZOS.FORM.ZZAC(ZZACLDT),
//             DISP=SHR
//SYSRECOV DD  DSN=SYS1.ZZOS.FORM.ZZAC(ZZACLOV),
//             DISP=SHR
//SYSUT1   DD  UNIT=SYSDA,SPACE=(4000,(50,50),,,ROUND)
//SYSIN    DD  *

  LOAD DATA INDDN(SYSRECOV) CONTINUEIF(72:72)='X'
       INTO TABLE ZZACDB2Z.TOPTVAL
            (MAJSYS   POSITION(  2) CHAR(1),
             ACTION   POSITION(  4) CHAR(1),
             OBJFLD   POSITION(  6) CHAR(2),
             SRCHCRIT POSITION(  9) CHAR(2),
             SCRTYPE  POSITION( 12) CHAR(1),
             HEADTXT  POSITION( 80) CHAR(50),
             SELTXT   POSITION(159) CHAR(50),
             INFOTXT  POSITION(238) CHAR(71),
             HELPTXT  POSITION(317) CHAR(71),
             PFKTXT   POSITION(396) CHAR(71),
             DSPINDEX POSITION(475) CHAR(2))
       SORTDEVT SYSDA SORTNUM 4

  LOAD DATA INDDN(SYSRECDT) CONTINUEIF(72:72)='X' RESUME(YES)
       INTO TABLE ZZACDB2Z.TDSPTXT
            (DSPINDEX POSITION( 2) CHAR(2),
             LINENO   POSITION( 6) CHAR(2),
             DSPLINE  POSITION(80) CHAR(71))
       SORTDEVT SYSDA SORTNUM 4

//*
//*        STEP 13: LOAD DATA INTO ZZAC APPLICATION TABLES
//*
//PH01S13 EXEC DSNUPROC,PARM='DB2Z,ZZACUTD',COND=(4,LT)
//SYSUT1   DD  UNIT=SYSDA,SPACE=(4000,(20,20),,,ROUND)
//SORTLIB  DD  DSN=SYS1.SORTLIB,DISP=SHR
//SORTOUT  DD  UNIT=SYSDA,SPACE=(4000,(20,20),,,ROUND)
//DSNTRACE DD  SYSOUT=*
//SYSRECAC DD  DSN=SYS1.ZZOS.FORM.ZZAC(ZZACLAC),
//             DISP=SHR
//SYSRECDP DD  DSN=SYS1.ZZOS.FORM.ZZAC(ZZACLDP),
//             DISP=SHR
//SYSRECEM DD  DSN=SYS1.ZZOS.FORM.ZZAC(ZZACLEM),
//             DISP=SHR
//SYSRECEP DD  DSN=SYS1.ZZOS.FORM.ZZAC(ZZACLEP),
//             DISP=SHR
//SYSRECPA DD  DSN=SYS1.ZZOS.FORM.ZZAC(ZZACLPA),
//             DISP=SHR
//SYSRECPJ DD DSN=SYS1.ZZOS.FORM.ZZAC(ZZACLPJ),
//             DISP=SHR
//SYSRECXP DD DSN=DB2.SDSNIVPD(DSN8LXPR),
//             DISP=SHR
//SYSERR   DD  UNIT=SYSDA,SPACE=(4000,(20,20),,,ROUND)
//SYSDISC  DD  UNIT=SYSDA,SPACE=(4000,(20,20),,,ROUND)
//SYSMAP   DD  UNIT=SYSDA,SPACE=(4000,(20,20),,,ROUND)
//SYSIN    DD  *

  LOAD DATA INDDN(SYSRECDP)
       INTO TABLE ZZACDB2Z.DEPT
            (DEPTNO   POSITION( 1) CHAR(3),
             DEPTNAME POSITION( 5) VARCHAR,
             MGRNO    POSITION(37) CHAR(6) NULLIF(MGRNO='      '),
             ADMRDEPT POSITION(44) CHAR(3),
             LOCATION POSITION(48) CHAR(16))
       ENFORCE NO
       SORTDEVT SYSDA SORTNUM 4

  LOAD DATA INDDN(SYSRECEM) CONTINUEIF(72:72)='X'
       INTO TABLE ZZACDB2Z.EMP
           (EMPNO     POSITION( 1)  CHAR(6),
            FIRSTNME  POSITION( 8)  VARCHAR,
            MIDINIT   POSITION(21)  CHAR(1),
            LASTNAME  POSITION(23)  VARCHAR,
            WORKDEPT  POSITION(36)  CHAR(3),
            PHONENO   POSITION(40)  CHAR(4),
            HIREDATE  POSITION(45)  DATE EXTERNAL,
            JOB       POSITION(56)  CHAR(8),
            EDLEVEL   POSITION(65)  INTEGER EXTERNAL(2),
            SEX       POSITION(68)  CHAR(1),
            BIRTHDATE POSITION(80)  DATE EXTERNAL,
            SALARY    POSITION(91)  INTEGER EXTERNAL(5),
            BONUS     POSITION(97)  INTEGER EXTERNAL(5),
            COMM      POSITION(103) INTEGER EXTERNAL(5))
      ENFORCE CONSTRAINTS MAPDDN SYSMAP
      SORTDEVT SYSDA SORTNUM 4

  LOAD DATA INDDN(SYSRECPJ) RESUME YES CONTINUEIF(72:72)='X'
       INTO TABLE ZZACDB2Z.PROJ
           (PROJNO   POSITION( 1) CHAR(6),
            PROJNAME POSITION( 8) VARCHAR,
            DEPTNO   POSITION(33) CHAR(3),
            RESPEMP  POSITION(37) CHAR(6),
            PRSTAFF  POSITION(44) DECIMAL EXTERNAL(5),
            PRSTDATE POSITION(50) DATE EXTERNAL,
            PRENDATE POSITION(61) DATE EXTERNAL,
            MAJPROJ  POSITION(80) CHAR(6) NULLIF(MAJPROJ='      '))
      ENFORCE NO
      SORTDEVT SYSDA SORTNUM 4

  LOAD DATA INDDN(SYSRECAC) RESUME YES
       INTO TABLE ZZACDB2Z.ACT
           (ACTNO    POSITION( 1) INTEGER EXTERNAL(3),
            ACTKWD   POSITION( 5) CHAR(6),
            ACTDESC  POSITION(13) VARCHAR)
      ENFORCE NO
      SORTDEVT SYSDA SORTNUM 4

  LOAD DATA INDDN(SYSRECPA) RESUME YES
       INTO TABLE ZZACDB2Z.PROJACT
           (PROJNO   POSITION( 1) CHAR(6),
            ACTNO    POSITION( 8) INTEGER EXTERNAL(3),
            ACSTAFF  POSITION(12) DECIMAL EXTERNAL(5),
            ACSTDATE POSITION(18) DATE EXTERNAL,
            ACENDATE POSITION(29) DATE EXTERNAL)
      ENFORCE NO
      SORTDEVT SYSDA SORTNUM 4

  LOAD DATA INDDN(SYSRECEP) RESUME YES
       INTO TABLE ZZACDB2Z.EMPPROJACT
           (EMPNO    POSITION( 1) CHAR(6),
            PROJNO   POSITION( 8) CHAR(6),
            ACTNO    POSITION(16) INTEGER EXTERNAL(3),
            EMPTIME  POSITION(20) DECIMAL EXTERNAL(5),
            EMSTDATE POSITION(26) DATE EXTERNAL,
            EMENDATE POSITION(37) DATE EXTERNAL)
      ENFORCE NO
      SORTDEVT SYSDA SORTNUM 4

  LOAD DATA INDDN(SYSRECXP) RESUME YES
       INTO TABLE ZZACDB2Z.PRODUCT
           (PID         POSITION(1)   CHAR(10),
           ,NAME        POSITION(11)  VARCHAR           NULLIF(140)='?'
           ,PRICE       POSITION(141) DECIMAL           NULLIF(157)='?'
           ,PROMOPRICE  POSITION(158) DECIMAL           NULLIF(174)='?'
           ,PROMOSTART  POSITION(175) DATE EXTERNAL(10) NULLIF(185)='?'
           ,PROMOEND    POSITION(186) DATE EXTERNAL(10) NULLIF(196)='?'
           ,DESCRIPTION POSITION(197) XML)
       SORTDEVT SYSDA SORTNUM 4
//*
//*        STEP 14: CHECK DATA FOR REFERENTIAL INTEGRITY
//*
//PH01S14 EXEC DSNUPROC,PARM='DB2Z,ZZACUTD',COND=(4,LT)
//SYSUT1   DD  UNIT=SYSDA,SPACE=(4000,(20,20),,,ROUND)
//SORTLIB  DD  DSN=SYS1.SORTLIB,DISP=SHR
//SORTOUT  DD  UNIT=SYSDA,SPACE=(4000,(20,20),,,ROUND)
//DSNTRACE DD  SYSOUT=*
//SYSERR   DD  UNIT=SYSDA,SPACE=(4000,(20,20),,,ROUND)
//SYSIN    DD  *

  CHECK DATA TABLESPACE ZZACD11A.ZZACS11D
             TABLESPACE ZZACD11A.ZZACS11E
             TABLESPACE ZZACD11A.ZZACS11P
       SCOPE ALL
       DELETE YES
       FOR EXCEPTION IN ZZACDB2Z.DEPT       USE ZZACDB2Z.EDEPT
                     IN ZZACDB2Z.EMP        USE ZZACDB2Z.EEMP
                     IN ZZACDB2Z.PROJ       USE ZZACDB2Z.EPROJ
                     IN ZZACDB2Z.ACT        USE ZZACDB2Z.EACT
                     IN ZZACDB2Z.PROJACT    USE ZZACDB2Z.EPROJACT
                     IN ZZACDB2Z.EMPPROJACT USE ZZACDB2Z.EEPA
       EXCEPTIONS 50
       SORTDEVT SYSDA SORTNUM 4

//*
//*        STEP 15: ESTABLISH A QUIESCE POINT
//*           NOTE: CONDITION CODE 4 INDICATES AN IMAGE COPY
//*                 CANNOT BE TAKEN
//*
//PH01S15 EXEC DSNUPROC,PARM='DB2Z,ZZACUTD',COND=(4,LT)
//SYSLISTD DD  DISP=SHR,DSN=ZZACDB2Z.ZZAC.LISTDEF
//SYSUT1   DD  UNIT=SYSDA,SPACE=(4000,(20,20),,,ROUND)
//SYSIN    DD  *

  QUIESCE LIST ZZACLDEF

//*
//*        STEP 16: TAKE IMAGE COPY OF ZZAC TABLES
//*
//PH01S16 EXEC DSNUPROC,PARM='DB2Z,ZZACUTD',COND=(4,LT)
//SYSLISTD DD  DISP=SHR,DSN=ZZACDB2Z.ZZAC.LISTDEF
//         DD  *
  INCLUDE TABLESPACE ZZACD11P.ZZACS11C
//DSNTRACE DD  SYSOUT=*
//SYSIN    DD  *

  TEMPLATE ZZACTPLT
           DSN(ZZACDB2Z.SYSCOPY.&DB..&TS.)
           DISP (NEW,CATLG,DELETE)
           PCTPRIME 100 MAXPRIME 5 NBRSECND 10
      COPY LIST ZZACLDEF
           COPYDDN(ZZACTPLT)

//*
//*        STEP 17: ESTABLISH A QUIESCE POINT USING ONLY IMAGE COPIES
//*
//PH01S17 EXEC DSNUPROC,PARM='DB2Z,ZZACUTD',COND=(4,LT)
//SYSLISTD DD  DISP=SHR,DSN=ZZACDB2Z.ZZAC.LISTDEF
//SYSUT1   DD  UNIT=SYSDA,SPACE=(4000,(20,20),,,ROUND)
//SYSIN    DD  *

  QUIESCE LIST ZZACLDEF

//*
//*        STEP 18: REORGANIZE TABLESPACES, PRODUCE STATISTICS
//*
//PH01S18 EXEC DSNUPROC,PARM='DB2Z,ZZACUTD',COND=(4,LT)
//SYSLISTD DD  DISP=SHR,DSN=ZZACDB2Z.ZZAC.LISTDEF
//SORTLIB  DD  DSN=SYS1.SORTLIB,DISP=SHR
//SORTOUT  DD  UNIT=SYSDA,SPACE=(4000,(20,20),,,ROUND)
//DSNTRACE DD  SYSOUT=*
//SYSUT1   DD  UNIT=SYSDA,SPACE=(4000,(50,50),,,ROUND)
//SYSREC   DD  UNIT=SYSDA,SPACE=(4000,(200,200),,,ROUND)
//SYSIN    DD  *

  REORG TABLESPACE ZZACD11A.ZZACS11D
        SORTDEVT SYSDA SORTNUM 4

 RUNSTATS TABLESPACE LIST ZZACLDEF
         INDEX(ALL)

//*
//*        STEP 19: RUN ONLINE REORG OF TBLSPACE USING SHRLEVEL CHANGE
//*
//PH01S19 EXEC DSNUPROC,PARM='DB2Z,ZZACUTD',COND=(4,LT)
//SORTLIB  DD  DSN=SYS1.SORTLIB,DISP=SHR
//SORTOUT  DD  UNIT=SYSDA,SPACE=(4000,(20,20),,,ROUND)
//DSNTRACE DD  SYSOUT=*
//SYSUT1   DD  UNIT=SYSDA,SPACE=(4000,(50,50),,,ROUND)
//SYSREC   DD  UNIT=SYSDA,SPACE=(4000,(200,200),,,ROUND)
//COPYDDN  DD  DSN=ZZACDB2Z.COPYDDN.ZZACD11P.ZZACS11C,
//             DISP=(NEW,CATLG),
//             SPACE=(TRK,(10,1),RLSE),
//             DCB=BLKSIZE=8000
//SYSIN    DD  *

 REORG TABLESPACE ZZACD11P.ZZACS11C
    COPYDDN(COPYDDN)
    SHRLEVEL CHANGE
    DEADLINE NONE
    MAPPINGTABLE ZZACDB2Z.MAP_TBL
    MAXRO 240 LONGLOG DRAIN DELAY 900
    SORTDEVT SYSDA SORTNUM 4

  RUNSTATS TABLESPACE ZZACD11P.ZZACS11C
          INDEX(ALL)

//*
//*        STEP 20: LOAD DATA INTO PART 3 OF ZZACD11A.ZZACS11E
//*
//PH01S20 EXEC DSNUPROC,PARM='DB2Z,ZZACUTD',COND=(4,LT)
//SYSUT1   DD  UNIT=SYSDA,SPACE=(4000,(20,20),,,ROUND)
//SORTLIB  DD  DSN=SYS1.SORTLIB,DISP=SHR
//SORTOUT  DD  UNIT=SYSDA,SPACE=(4000,(20,20),,,ROUND)
//DSNTRACE DD  SYSOUT=*
//SYSRECE3 DD  DSN=SYS1.ZZOS.FORM.ZZAC(ZZACLE3),
//             DISP=SHR
//SYSERR   DD  UNIT=SYSDA,SPACE=(4000,(20,20),,,ROUND)
//SYSDISC  DD  UNIT=SYSDA,SPACE=(4000,(20,20),,,ROUND)
//SYSMAP   DD  UNIT=SYSDA,SPACE=(4000,(20,20),,,ROUND)
//SYSIN    DD  *

  LOAD DATA INDDN(SYSRECE3) CONTINUEIF(72:72)='X'
       RESUME YES
       INTO TABLE ZZACDB2Z.EMP
            PART 3
            REPLACE
           (EMPNO     POSITION( 1)  CHAR(6),
            FIRSTNME  POSITION( 8)  VARCHAR,
            MIDINIT   POSITION(21)  CHAR(1),
            LASTNAME  POSITION(23)  VARCHAR,
            WORKDEPT  POSITION(36)  CHAR(3),
            PHONENO   POSITION(40)  CHAR(4),
            HIREDATE  POSITION(45)  DATE EXTERNAL,
            JOB       POSITION(56)  CHAR(8),
            EDLEVEL   POSITION(65)  INTEGER EXTERNAL(2),
            SEX       POSITION(68)  CHAR(1),
            BIRTHDATE POSITION(80)  DATE EXTERNAL,
            SALARY    POSITION(91)  INTEGER EXTERNAL(5),
            BONUS     POSITION(97)  INTEGER EXTERNAL(5),
            COMM      POSITION(103) INTEGER EXTERNAL(5))
      ENFORCE CONSTRAINTS MAPDDN SYSMAP
      SORTDEVT SYSDA SORTNUM 4

//*
//*        STEP 21: SET CURRENT RULES THEN ALTER TABLE
//*
//PH01S21 EXEC PGM=IKJEFT01,DYNAMNBR=20,COND=(4,LT)
//SYSTSPRT DD  SYSOUT=*
//SYSTSIN  DD  *
  DSN SYSTEM(DB2Z)
  RUN  PROGRAM(DSNTIAD) PLAN(DSNTIAD) -
       LIB('DB2Z.RUNLIB.LOAD')
//SYSPRINT DD  SYSOUT=*
//SYSUDUMP DD  SYSOUT=*
//SYSIN    DD  *
  SET CURRENT RULES = 'DB2';
  COMMIT;
  ALTER TABLE EMP ADD CONSTRAINT PERSON
    CHECK (SEX = 'M' OR SEX = 'F');
  COMMIT;

//*
//*        STEP 22: CHECK DATA IN PART 3 OF ZZACD11A.ZZACS11E
//*                 FOR REFERENTIAL INTEGRITY
//*
//PH01S22 EXEC DSNUPROC,PARM='DB2Z,ZZACUTD',COND=(4,LT)
//SYSUT1   DD  UNIT=SYSDA,SPACE=(4000,(20,20),,,ROUND)
//SORTLIB  DD  DSN=SYS1.SORTLIB,DISP=SHR
//SORTOUT  DD  UNIT=SYSDA,SPACE=(4000,(20,20),,,ROUND)
//DSNTRACE DD  SYSOUT=*
//SYSERR   DD  UNIT=SYSDA,SPACE=(4000,(20,20),,,ROUND)
//SYSDISC  DD  UNIT=SYSDA,SPACE=(4000,(20,20),,,ROUND)
//SYSIN    DD  *

  CHECK DATA TABLESPACE ZZACD11A.ZZACS11D
             TABLESPACE ZZACD11A.ZZACS11E
             TABLESPACE ZZACD11A.ZZACS11P
       SCOPE ALL
       DELETE YES
       FOR EXCEPTION IN ZZACDB2Z.DEPT       USE ZZACDB2Z.EDEPT
                     IN ZZACDB2Z.EMP        USE ZZACDB2Z.EEMP
                     IN ZZACDB2Z.PROJ       USE ZZACDB2Z.EPROJ
                     IN ZZACDB2Z.ACT        USE ZZACDB2Z.EACT
                     IN ZZACDB2Z.PROJACT    USE ZZACDB2Z.EPROJACT
                     IN ZZACDB2Z.EMPPROJACT USE ZZACDB2Z.EEPA
       EXCEPTIONS 50
       SORTDEVT SYSDA SORTNUM 4

//*
//*        STEP 23: ATTEMPT INSERT INTO THE EMP TABLE
//*
//PH01S23 EXEC PGM=IKJEFT01,DYNAMNBR=20,COND=(4,LT)
//SYSTSPRT DD  SYSOUT=*
//SYSTSIN  DD  *
  DSN SYSTEM(DB2Z)
  RUN  PROGRAM(DSNTIAD) PLAN(DSNTIAD) PARM('RC0') -
       LIB('DB2Z.RUNLIB.LOAD')
//SYSPRINT DD  SYSOUT=*
//SYSUDUMP DD  SYSOUT=*
//SYSIN    DD  *

  INSERT INTO EMP
    VALUES ('000011', 'CHRISTINE', 'I', 'HAAS', 'A00', 'A1A1',
            '1965-01-01', 'PRES', 18, 'F', '1933-08-14',
            52750, 1000, 4220);
  COMMIT;

  INSERT INTO EMP
    VALUES ('200011', 'DIANE', 'J', 'HEMMINGER', 'A00', '3978',
            '1965-01-01', 'SALESREP', 18, 'U', '1933-08-14',
            46500, 1000, 4220);
  COMMIT;

//*
//*        STEP 24: ESTABLISH A QUIESCE POINT FOR PART 3
//*                 OF ZZACD11A.ZZACS11E
//*           NOTE: CONDITION CODE 4 INDICATES AN IMAGE COPY
//*                 CANNOT BE TAKEN
//*
//PH01S24 EXEC DSNUPROC,PARM='DB2Z,ZZACUTD',COND=(4,LT)
//SYSUT1   DD  UNIT=SYSDA,SPACE=(4000,(20,20),,,ROUND)
//SYSIN    DD  *

  QUIESCE TABLESPACE ZZACD11A.ZZACS11E
          PART 3

//*
//*        STEP 25: TAKE IMAGE COPY OF PART 3 OF ZZACD11A.ZZACS11E
//*
//PH01S25 EXEC DSNUPROC,PARM='DB2Z,ZZACUTD',COND=(4,LT)
//DSNTRACE DD  SYSOUT=*
//SYSCOPY  DD  DSN=ZZACDB2Z.ZZACD11A.ZZACS11E.PART3,
//             DISP=(NEW,CATLG),
//             SPACE=(4000,(20,20))
//SYSIN    DD  *

  COPY TABLESPACE ZZACD11A.ZZACS11E
       DSNUM 3 COPYDDN SYSCOPY

//*
//*        STEP 26: ESTABLISH A QUIESCE POINT FOR PART 3
//*                 OF ZZACD11A.ZZACS11E USING ONLY IMAGE COPY
//*           NOTE: CONDITION CODE 4 INDICATES AN IMAGE COPY
//*                 CANNOT BE TAKEN
//*
//PH01S26 EXEC DSNUPROC,PARM='DB2Z,ZZACUTD',COND=(4,LT)
//SYSUT1   DD  UNIT=SYSDA,SPACE=(4000,(20,20),,,ROUND)
//SYSIN    DD  *

  QUIESCE TABLESPACE ZZACD11A.ZZACS11E
          PART 3

//*
//*        STEP 27: PRODUCE STATISTICS FOR PART 3 OF
//*                 OF ZZACD11A.ZZACS11E
//*
//PH01S27 EXEC DSNUPROC,PARM='DB2Z,ZZACUTD',COND=(4,LT)
//SORTLIB  DD  DSN=SYS1.SORTLIB,DISP=SHR
//SORTOUT  DD  UNIT=SYSDA,SPACE=(4000,(20,20),,,ROUND)
//DSNTRACE DD  SYSOUT=*
//SYSUT1   DD  UNIT=SYSDA,SPACE=(4000,(50,50),,,ROUND)
//SYSREC   DD  UNIT=SYSDA,SPACE=(4000,(200,200),,,ROUND)
//SYSIN    DD  *

  RUNSTATS TABLESPACE ZZACD11A.ZZACS11E
          PART 3
          INDEX(ALL)

//*
//*        STEP 28: UNLOAD PARTITIONS 1,3, AND 4
//*                 OF ZZACD11A.ZZACS11E
//*
//PH01S28 EXEC DSNUPROC,PARM='DB2Z,ZZACUTD',COND=(4,LT)
//SYSPRINT DD  SYSOUT=*
//SYSIN    DD  *

   LISTDEF ZZACLDUL
           INCLUDE TABLESPACE ZZACD11A.ZZACS11E PARTLEVEL
           EXCLUDE TABLESPACE ZZACD11A.ZZACS11E PARTLEVEL(2)
  TEMPLATE ZZACTPPU
           DSN(ZZACDB2Z.&DB..&TS..SYSPUNCH)
           DISP(NEW,CATLG,DELETE)
           PCTPRIME 100 MAXPRIME 1 NBRSECND 1
  TEMPLATE ZZACTPSY
           DSN(ZZACDB2Z.&DB..&TS..P&PART.)
           DISP(NEW,CATLG,DELETE)
           PCTPRIME 100 MAXPRIME 5 NBRSECND 10
    UNLOAD LIST ZZACLDUL
           PUNCHDDN(ZZACTPPU)
           UNLDDN(ZZACTPSY)
           EBCDIC
           NOPAD

//*
//*        STEP 29: REDUCE THE PARTITIONING KEY ON PARTITION 4 OF
//*                 TABLESPACE ZZACS11E
//*
//PH01S29 EXEC PGM=IKJEFT01,DYNAMNBR=20,COND=(4,LT)
//SYSTSPRT DD  SYSOUT=*
//SYSTSIN  DD  *
  DSN SYSTEM(DB2Z)
  RUN  PROGRAM(DSNTIAD) PLAN(DSNTIAD) -
       LIB('DB2Z.RUNLIB.LOAD')
//SYSPRINT DD  SYSOUT=*
//SYSUDUMP DD  SYSOUT=*
//SYSIN    DD  *

   ALTER TABLE ZZACDB2Z.EMP ALTER PART 4 VALUES('499999');

//*
//*        STEP 30: REORGANIZE TABLESPACE ZZACD11A.ZZACS11E
//*
//PH01S30 EXEC DSNUPROC,PARM='DB2Z,ZZACUTD',COND=(4,LT)
//SYSLISTD DD  DISP=SHR,DSN=ZZACDB2Z.ZZAC.LISTDEF
//SORTLIB  DD  DSN=SYS1.SORTLIB,DISP=SHR
//SORTOUT  DD  UNIT=SYSDA,SPACE=(4000,(20,20),,,ROUND)
//DSNTRACE DD  SYSOUT=*
//SYSUT1   DD  UNIT=SYSDA,SPACE=(4000,(50,50),,,ROUND)
//SYSREC   DD  UNIT=SYSDA,SPACE=(4000,(200,200),,,ROUND)
//SYSIN    DD  *

  TEMPLATE ZZACTPPU
           DSN(ZZACDB2Z.&DB..&TS..REORGPUN)
           DISP(NEW,CATLG,DELETE)
           PCTPRIME 100 MAXPRIME 1 NBRSECND 1
  TEMPLATE ZZACTPCY
           DSN(ZZACDB2Z.&DB..&TS..REORGCPY)
           DISP(NEW,CATLG,DELETE)
           PCTPRIME 100 MAXPRIME 1 NBRSECND 1
  TEMPLATE ZZACTPDS
           DSN(ZZACDB2Z.&DB..&TS..REORGDSC)
           DISP(NEW,CATLG,DELETE)
           PCTPRIME 100 MAXPRIME 1 NBRSECND 1
     REORG TABLESPACE ZZACD11A.ZZACS11E
           SHRLEVEL REFERENCE
           PART 1:4
           PUNCHDDN(ZZACTPPU)
           COPYDDN(ZZACTPCY)
           DISCARDDN(ZZACTPDS)
           SORTDEVT SYSDA SORTNUM 4

//*
//*        STEP 31: ADD A FIFTH PARTITION TO
//*                 TABLESPACE ZZACS11E
//*
//PH01S31 EXEC PGM=IKJEFT01,DYNAMNBR=20,COND=(4,LT)
//SYSTSPRT DD  SYSOUT=*
//SYSTSIN  DD  *
  DSN SYSTEM(DB2Z)
  -STOP DB(ZZACD11A) SPACENAM(*)
  RUN  PROGRAM(DSNTIAD) PLAN(DSNTIAD) -
       LIB('DB2Z.RUNLIB.LOAD')
  -START DB(ZZACD11A) SPACENAM(*)
//SYSPRINT DD  SYSOUT=*
//SYSUDUMP DD  SYSOUT=*
//SYSIN    DD  *

   ALTER TABLE ZZACDB2Z.EMP ADD PARTITION ENDING AT('999999');

//*
//*        STEP 32: EXTEND THE LENGTH OF A FIXED CHAR
//*                 COLUMN IN THE PARTS TABLE. ALSO
//*                 CONVERT A SMALL INTEGER FIELD TO
//*                 A DECIMAL TYPE FIELD OF EEMP TABLE.
//*
//PH01S32 EXEC PGM=IKJEFT01,DYNAMNBR=20,COND=(4,LT)
//SYSTSPRT DD  SYSOUT=*
//SYSTSIN  DD  *
  DSN SYSTEM(DB2Z)
  RUN  PROGRAM(DSNTIAD) PLAN(DSNTIAD) -
       LIB('DB2Z.RUNLIB.LOAD')
//SYSPRINT DD  SYSOUT=*
//SYSUDUMP DD  SYSOUT=*
//SYSIN    DD  *

   ALTER TABLE ZZACDB2Z.PARTS ALTER COLUMN ITEMNUM
         SET DATA TYPE VARCHAR(10);

   ALTER TABLE ZZACDB2Z.EEMP ALTER COLUMN EDLEVEL
         SET DATA TYPE DECIMAL(5, 0);

//*
//*        STEP 33: REORGANIZE TABLESPACE ZZACD11A.ZZACS11R AND
//*                 ZZACD11A.ZZACS11S TO RESET REORG-PENDING STATUS
//*
//PH01S33 EXEC DSNUPROC,PARM='DB2Z,ZZACUTD',COND=(4,LT)
//SORTLIB  DD  DSN=SYS1.SORTLIB,DISP=SHR
//SORTOUT  DD  UNIT=SYSDA,SPACE=(4000,(20,20),,,ROUND)
//DSNTRACE DD  SYSOUT=*
//SYSUT1   DD  UNIT=SYSDA,SPACE=(4000,(50,50),,,ROUND)
//SYSREC   DD  UNIT=SYSDA,SPACE=(4000,(200,200),,,ROUND)
//SYSIN    DD  *

  REORG TABLESPACE ZZACD11A.ZZACS11R
        SORTDEVT SYSDA  SORTNUM 4

  REORG TABLESPACE ZZACD11A.ZZACS11S
        SORTDEVT SYSDA  SORTNUM 4

//*
